,_key_sf_account_dimension,property_ids,prop_counts,number_hotels,validation
0,0011t00000g8TewAAE,1013235,1,1.0,True
1,0011t00000Hns4vAAB,1025072,4,4.0,True
1,0011t00000Hns4vAAB,1025071,4,4.0,True
1,0011t00000Hns4vAAB,1024720,4,4.0,True
1,0011t00000Hns4vAAB,1025070,4,4.0,True
2,0011t00000atoQMAAY,1026831,1,1.0,True
7,0011t00000Hns9FAAR,1013559,1,1.0,True
8,0013X00002RaQmHQAV,1024931,1,1.0,True
9,0011t00000Hns9oAAB,1027254,1,1.0,True
13,0011t00000HnwScAAJ,1011395,1,1.0,True
15,0011t00000HnsLUAAZ,1015771,5,5.0,True
15,0011t00000HnsLUAAZ,1015769,5,5.0,True
15,0011t00000HnsLUAAZ,1015770,5,5.0,True
15,0011t00000HnsLUAAZ,1015772,5,5.0,True
15,0011t00000HnsLUAAZ,1015773,5,5.0,True
16,0011t00000HnsOJAAZ,1016496,10,10.0,True
16,0011t00000HnsOJAAZ,1016425,10,10.0,True
16,0011t00000HnsOJAAZ,1016426,10,10.0,True
16,0011t00000HnsOJAAZ,1016424,10,10.0,True
16,0011t00000HnsOJAAZ,1024448,10,10.0,True
16,0011t00000HnsOJAAZ,1016495,10,10.0,True
16,0011t00000HnsOJAAZ,1025449,10,10.0,True
16,0011t00000HnsOJAAZ,1024447,10,10.0,True
16,0011t00000HnsOJAAZ,1016427,10,10.0,True
16,0011t00000HnsOJAAZ,1016423,10,10.0,True
18,0011t00000Hntl6AAB,1016815,3,3.0,True
18,0011t00000Hntl6AAB,1016817,3,3.0,True
18,0011t00000Hntl6AAB,1015309,3,3.0,True
19,0011t00000HnsW5AAJ,1026657,5,5.0,True
19,0011t00000HnsW5AAJ,1026660,5,5.0,True
19,0011t00000HnsW5AAJ,1026659,5,5.0,True
19,0011t00000HnsW5AAJ,1026655,5,5.0,True
19,0011t00000HnsW5AAJ,1026656,5,5.0,True
21,0011t00000HnsZjAAJ,1026029,3,3.0,True
21,0011t00000HnsZjAAJ,1026031,3,3.0,True
21,0011t00000HnsZjAAJ,1026030,3,3.0,True
22,0011t00000HnsaMAAR,1026834,1,1.0,True
26,0011t00000HnshlAAB,1025124,1,1.0,True
28,0011t00000HnspeAAB,1027291,1,1.0,True
30,0011t00000RZDnnAAH,1016631,1,1.0,True
35,0011t00000HnsqzAAB,1016555,4,4.0,True
35,0011t00000HnsqzAAB,1016553,4,4.0,True
35,0011t00000HnsqzAAB,1016554,4,4.0,True
35,0011t00000HnsqzAAB,1015951,4,4.0,True
36,0011t00000K26POAAZ,1016458,1,1.0,True
69,0011t00000HnsuhAAB,1025481,1,1.0,True
70,0011t00000HnsycAAB,1026679,2,2.0,True
70,0011t00000HnsycAAB,1026678,2,2.0,True
81,0011t00000Hnt5CAAR,1016174,1,1.0,True
82,0011t00000Hnt9jAAB,1016873,1,1.0,True
83,0011t00000HntCIAAZ,1027571,1,1.0,True
84,0011t00000HntJAAAZ,1024366,1,1.0,True
87,0011t00000HnvAjAAJ,1013989,1,1.0,True
90,0011t00000HntZOAAZ,1012187,5,5.0,True
90,0011t00000HntZOAAZ,1012185,5,5.0,True
90,0011t00000HntZOAAZ,1012184,5,5.0,True
90,0011t00000HntZOAAZ,1012188,5,5.0,True
90,0011t00000HntZOAAZ,1012186,5,5.0,True
91,0011t00000HntcyAAB,1012155,3,3.0,True
91,0011t00000HntcyAAB,1012157,3,3.0,True
91,0011t00000HntcyAAB,1012153,3,3.0,True
92,0011t00000HntkYAAR,1025094,6,6.0,True
92,0011t00000HntkYAAR,1025096,6,6.0,True
92,0011t00000HntkYAAR,1025090,6,6.0,True
92,0011t00000HntkYAAR,1025093,6,6.0,True
92,0011t00000HntkYAAR,1025095,6,6.0,True
92,0011t00000HntkYAAR,1025089,6,6.0,True
95,0011t00000HntolAAB,1015722,1,1.0,True
97,0011t00000HntrqAAB,1025825,1,1.0,True
99,0013X00002fhGe6QAE,1026938,1,1.0,True
100,0011t00000HntsMAAR,1027322,1,1.0,True
102,0011t00000HntthAAB,1015164,7,7.0,True
102,0011t00000HntthAAB,1015161,7,7.0,True
102,0011t00000HntthAAB,1015162,7,7.0,True
102,0011t00000HntthAAB,1015160,7,7.0,True
102,0011t00000HntthAAB,1015159,7,7.0,True
102,0011t00000HntthAAB,1015163,7,7.0,True
102,0011t00000HntthAAB,1015209,7,7.0,True
104,0011t00000HnvA1AAJ,1000432,1,1.0,True
105,0011t00000HnwjrAAB,1016181,1,1.0,True
106,0011t00000HntziAAB,1024572,30,30.0,True
106,0011t00000HntziAAB,1015561,30,30.0,True
106,0011t00000HntziAAB,1024564,30,30.0,True
106,0011t00000HntziAAB,1024560,30,30.0,True
106,0011t00000HntziAAB,1024576,30,30.0,True
106,0011t00000HntziAAB,1016445,30,30.0,True
106,0011t00000HntziAAB,1015562,30,30.0,True
106,0011t00000HntziAAB,1024577,30,30.0,True
106,0011t00000HntziAAB,1015934,30,30.0,True
106,0011t00000HntziAAB,1024569,30,30.0,True
106,0011t00000HntziAAB,1024567,30,30.0,True
106,0011t00000HntziAAB,1016446,30,30.0,True
106,0011t00000HntziAAB,1024563,30,30.0,True
106,0011t00000HntziAAB,1024559,30,30.0,True
106,0011t00000HntziAAB,1016448,30,30.0,True
106,0011t00000HntziAAB,1016447,30,30.0,True
106,0011t00000HntziAAB,1024565,30,30.0,True
106,0011t00000HntziAAB,1024561,30,30.0,True
106,0011t00000HntziAAB,1024568,30,30.0,True
106,0011t00000HntziAAB,1015935,30,30.0,True
106,0011t00000HntziAAB,1015936,30,30.0,True
106,0011t00000HntziAAB,1024571,30,30.0,True
106,0011t00000HntziAAB,1024575,30,30.0,True
106,0011t00000HntziAAB,1024570,30,30.0,True
106,0011t00000HntziAAB,1024566,30,30.0,True
106,0011t00000HntziAAB,1024574,30,30.0,True
106,0011t00000HntziAAB,1016449,30,30.0,True
106,0011t00000HntziAAB,1024558,30,30.0,True
106,0011t00000HntziAAB,1024573,30,30.0,True
106,0011t00000HntziAAB,1016593,30,30.0,True
108,0011t00000Hnu5GAAR,1025642,2,2.0,True
108,0011t00000Hnu5GAAR,1025641,2,2.0,True
109,0011t00000Hnu8IAAR,1026420,1,1.0,True
110,0011t00000Hnu8WAAR,1000356,1,1.0,True
111,0011t00000Hnu9UAAR,1013870,3,3.0,True
111,0011t00000Hnu9UAAR,1013992,3,3.0,True
111,0011t00000Hnu9UAAR,1016494,3,3.0,True
112,0011t00000HnuGNAAZ,1026461,1,1.0,True
113,0011t00000HnuH4AAJ,1024691,1,1.0,True
114,0011t00000HnuKnAAJ,1015658,2,2.0,True
114,0011t00000HnuKnAAJ,1015659,2,2.0,True
115,0011t00000HnuOJAAZ,1013577,1,1.0,True
119,0011t00000HnuTgAAJ,1024743,1,1.0,True
120,0011t00000HnuWOAAZ,1016859,1,1.0,True
121,0013X00002hzovGQAQ,1026829,1,1.0,True
122,0011t00000HnuWrAAJ,1027033,2,2.0,True
122,0011t00000HnuWrAAJ,1027034,2,2.0,True
124,0011t00000Hnv3uAAB,1015165,1,1.0,True
126,0011t00000Hnw90AAB,1025492,1,1.0,True
127,0011t00000HnuaYAAR,1015364,1,1.0,True
128,0011t00000r4xbmAAA,1024918,1,1.0,True
130,0011t00000HnuxPAAR,1013109,1,1.0,True
133,0011t00000HnulcAAB,1027098,1,1.0,True
134,0011t00000Hnuo4AAB,1015618,3,3.0,True
134,0011t00000Hnuo4AAB,1015619,3,3.0,True
134,0011t00000Hnuo4AAB,1015620,3,3.0,True
135,0011t00000HnuvRAAR,1014644,12,12.0,True
135,0011t00000HnuvRAAR,1012759,12,12.0,True
135,0011t00000HnuvRAAR,1014646,12,12.0,True
135,0011t00000HnuvRAAR,1011815,12,12.0,True
135,0011t00000HnuvRAAR,1012761,12,12.0,True
135,0011t00000HnuvRAAR,1012760,12,12.0,True
135,0011t00000HnuvRAAR,1011814,12,12.0,True
135,0011t00000HnuvRAAR,1012757,12,12.0,True
135,0011t00000HnuvRAAR,1011813,12,12.0,True
135,0011t00000HnuvRAAR,1014645,12,12.0,True
135,0011t00000HnuvRAAR,1015339,12,12.0,True
135,0011t00000HnuvRAAR,1012758,12,12.0,True
137,0011t00000HnuwnAAB,1011080,1,1.0,True
139,0011t00000HnuxQAAR,1011744,1,1.0,True
140,0011t00000HnuxeAAB,1013878,1,1.0,True
141,0011t00000HnuxqAAB,1010922,1,1.0,True
142,0011t00000Hnv1lAAB,1026076,1,1.0,True
143,0011t00000Hnv27AAB,1012042,1,1.0,True
144,0011t00000Hnv2JAAR,1013952,1,1.0,True
145,0011t00000Hnv31AAB,1011996,1,1.0,True
146,0011t00000Hnv3RAAR,1014668,1,1.0,True
147,0011t00000Hnv8NAAR,1012726,8,8.0,True
147,0011t00000Hnv8NAAR,1012727,8,8.0,True
147,0011t00000Hnv8NAAR,1012724,8,8.0,True
147,0011t00000Hnv8NAAR,1012725,8,8.0,True
147,0011t00000Hnv8NAAR,1012722,8,8.0,True
147,0011t00000Hnv8NAAR,1014226,8,8.0,True
147,0011t00000Hnv8NAAR,1012723,8,8.0,True
147,0011t00000Hnv8NAAR,1027381,8,8.0,True
148,0011t00000Hnv8QAAR,1013544,1,1.0,True
149,0011t00000Hnv8RAAR,1000731,1,1.0,True
150,0011t00000Hnv8UAAR,1010953,1,1.0,True
151,0011t00000Hnv8WAAR,1000577,1,1.0,True
152,0011t00000Hnv8XAAR,1010905,1,1.0,True
153,0011t00000Hnv8YAAR,1012093,1,1.0,True
154,0011t00000Hnv8ZAAR,1013526,11,11.0,True
154,0011t00000Hnv8ZAAR,1013525,11,11.0,True
154,0011t00000Hnv8ZAAR,1013532,11,11.0,True
154,0011t00000Hnv8ZAAR,1013527,11,11.0,True
154,0011t00000Hnv8ZAAR,1013529,11,11.0,True
154,0011t00000Hnv8ZAAR,1013117,11,11.0,True
154,0011t00000Hnv8ZAAR,1013530,11,11.0,True
154,0011t00000Hnv8ZAAR,1013528,11,11.0,True
154,0011t00000Hnv8ZAAR,1013112,11,11.0,True
154,0011t00000Hnv8ZAAR,1013531,11,11.0,True
154,0011t00000Hnv8ZAAR,1013533,11,11.0,True
156,0011t00000Hnv8cAAB,1014971,5,5.0,True
156,0011t00000Hnv8cAAB,1016247,5,5.0,True
156,0011t00000Hnv8cAAB,1014972,5,5.0,True
156,0011t00000Hnv8cAAB,1014974,5,5.0,True
156,0011t00000Hnv8cAAB,1014973,5,5.0,True
158,0011t00000Hnv8fAAB,1015766,1,1.0,True
159,0011t00000Hnv8hAAB,1027001,7,7.0,True
159,0011t00000Hnv8hAAB,1014444,7,7.0,True
159,0011t00000Hnv8hAAB,1024893,7,7.0,True
159,0011t00000Hnv8hAAB,1014119,7,7.0,True
159,0011t00000Hnv8hAAB,1014445,7,7.0,True
159,0011t00000Hnv8hAAB,1014116,7,7.0,True
159,0011t00000Hnv8hAAB,1014118,7,7.0,True
160,0011t00000Hnv8iAAB,1015785,7,7.0,True
160,0011t00000Hnv8iAAB,1015211,7,7.0,True
160,0011t00000Hnv8iAAB,1014426,7,7.0,True
160,0011t00000Hnv8iAAB,1015784,7,7.0,True
160,0011t00000Hnv8iAAB,1015210,7,7.0,True
160,0011t00000Hnv8iAAB,1014424,7,7.0,True
160,0011t00000Hnv8iAAB,1014427,7,7.0,True
161,0011t00000Hnv8jAAB,1015064,137,137.0,True
161,0011t00000Hnv8jAAB,1015069,137,137.0,True
161,0011t00000Hnv8jAAB,1015088,137,137.0,True
161,0011t00000Hnv8jAAB,1014238,137,137.0,True
161,0011t00000Hnv8jAAB,1015083,137,137.0,True
161,0011t00000Hnv8jAAB,1015084,137,137.0,True
161,0011t00000Hnv8jAAB,1027585,137,137.0,True
161,0011t00000Hnv8jAAB,1015021,137,137.0,True
161,0011t00000Hnv8jAAB,1015118,137,137.0,True
161,0011t00000Hnv8jAAB,1015017,137,137.0,True
161,0011t00000Hnv8jAAB,1015071,137,137.0,True
161,0011t00000Hnv8jAAB,1016836,137,137.0,True
161,0011t00000Hnv8jAAB,1014774,137,137.0,True
161,0011t00000Hnv8jAAB,1027584,137,137.0,True
161,0011t00000Hnv8jAAB,1015074,137,137.0,True
161,0011t00000Hnv8jAAB,1013220,137,137.0,True
161,0011t00000Hnv8jAAB,1015111,137,137.0,True
161,0011t00000Hnv8jAAB,1015025,137,137.0,True
161,0011t00000Hnv8jAAB,1015060,137,137.0,True
161,0011t00000Hnv8jAAB,1013225,137,137.0,True
161,0011t00000Hnv8jAAB,1015045,137,137.0,True
161,0011t00000Hnv8jAAB,1015038,137,137.0,True
161,0011t00000Hnv8jAAB,1013925,137,137.0,True
161,0011t00000Hnv8jAAB,1015091,137,137.0,True
161,0011t00000Hnv8jAAB,1015024,137,137.0,True
161,0011t00000Hnv8jAAB,1015661,137,137.0,True
161,0011t00000Hnv8jAAB,1013226,137,137.0,True
161,0011t00000Hnv8jAAB,1015100,137,137.0,True
161,0011t00000Hnv8jAAB,1016798,137,137.0,True
161,0011t00000Hnv8jAAB,1015128,137,137.0,True
161,0011t00000Hnv8jAAB,1015019,137,137.0,True
161,0011t00000Hnv8jAAB,1015073,137,137.0,True
161,0011t00000Hnv8jAAB,1015301,137,137.0,True
161,0011t00000Hnv8jAAB,1014236,137,137.0,True
161,0011t00000Hnv8jAAB,1015039,137,137.0,True
161,0011t00000Hnv8jAAB,1015020,137,137.0,True
161,0011t00000Hnv8jAAB,1015029,137,137.0,True
161,0011t00000Hnv8jAAB,1027215,137,137.0,True
161,0011t00000Hnv8jAAB,1014239,137,137.0,True
161,0011t00000Hnv8jAAB,1015078,137,137.0,True
161,0011t00000Hnv8jAAB,1014242,137,137.0,True
161,0011t00000Hnv8jAAB,1015031,137,137.0,True
161,0011t00000Hnv8jAAB,1013223,137,137.0,True
161,0011t00000Hnv8jAAB,1026931,137,137.0,True
161,0011t00000Hnv8jAAB,1014233,137,137.0,True
161,0011t00000Hnv8jAAB,1015662,137,137.0,True
161,0011t00000Hnv8jAAB,1014243,137,137.0,True
161,0011t00000Hnv8jAAB,1016576,137,137.0,True
161,0011t00000Hnv8jAAB,1015526,137,137.0,True
161,0011t00000Hnv8jAAB,1015062,137,137.0,True
161,0011t00000Hnv8jAAB,1015050,137,137.0,True
161,0011t00000Hnv8jAAB,1015107,137,137.0,True
161,0011t00000Hnv8jAAB,1014237,137,137.0,True
161,0011t00000Hnv8jAAB,1015094,137,137.0,True
161,0011t00000Hnv8jAAB,1014748,137,137.0,True
161,0011t00000Hnv8jAAB,1014772,137,137.0,True
161,0011t00000Hnv8jAAB,1027242,137,137.0,True
161,0011t00000Hnv8jAAB,1015013,137,137.0,True
161,0011t00000Hnv8jAAB,1015116,137,137.0,True
161,0011t00000Hnv8jAAB,1015015,137,137.0,True
161,0011t00000Hnv8jAAB,1015052,137,137.0,True
161,0011t00000Hnv8jAAB,1015093,137,137.0,True
161,0011t00000Hnv8jAAB,1015114,137,137.0,True
161,0011t00000Hnv8jAAB,1015528,137,137.0,True
161,0011t00000Hnv8jAAB,1015109,137,137.0,True
161,0011t00000Hnv8jAAB,1015082,137,137.0,True
161,0011t00000Hnv8jAAB,1015012,137,137.0,True
161,0011t00000Hnv8jAAB,1015063,137,137.0,True
161,0011t00000Hnv8jAAB,1015660,137,137.0,True
161,0011t00000Hnv8jAAB,1015034,137,137.0,True
161,0011t00000Hnv8jAAB,1015043,137,137.0,True
161,0011t00000Hnv8jAAB,1015035,137,137.0,True
161,0011t00000Hnv8jAAB,1015041,137,137.0,True
161,0011t00000Hnv8jAAB,1013221,137,137.0,True
161,0011t00000Hnv8jAAB,1015113,137,137.0,True
161,0011t00000Hnv8jAAB,1015110,137,137.0,True
161,0011t00000Hnv8jAAB,1015056,137,137.0,True
161,0011t00000Hnv8jAAB,1014232,137,137.0,True
161,0011t00000Hnv8jAAB,1015026,137,137.0,True
161,0011t00000Hnv8jAAB,1015032,137,137.0,True
161,0011t00000Hnv8jAAB,1015010,137,137.0,True
161,0011t00000Hnv8jAAB,1015054,137,137.0,True
161,0011t00000Hnv8jAAB,1015089,137,137.0,True
161,0011t00000Hnv8jAAB,1015120,137,137.0,True
161,0011t00000Hnv8jAAB,1015027,137,137.0,True
161,0011t00000Hnv8jAAB,1015079,137,137.0,True
161,0011t00000Hnv8jAAB,1013919,137,137.0,True
161,0011t00000Hnv8jAAB,1015080,137,137.0,True
161,0011t00000Hnv8jAAB,1015036,137,137.0,True
161,0011t00000Hnv8jAAB,1015042,137,137.0,True
161,0011t00000Hnv8jAAB,1015070,137,137.0,True
161,0011t00000Hnv8jAAB,1014776,137,137.0,True
161,0011t00000Hnv8jAAB,1015030,137,137.0,True
161,0011t00000Hnv8jAAB,1015048,137,137.0,True
161,0011t00000Hnv8jAAB,1015087,137,137.0,True
161,0011t00000Hnv8jAAB,1014773,137,137.0,True
161,0011t00000Hnv8jAAB,1015023,137,137.0,True
161,0011t00000Hnv8jAAB,1015075,137,137.0,True
161,0011t00000Hnv8jAAB,1016416,137,137.0,True
161,0011t00000Hnv8jAAB,1015096,137,137.0,True
161,0011t00000Hnv8jAAB,1015086,137,137.0,True
161,0011t00000Hnv8jAAB,1015037,137,137.0,True
161,0011t00000Hnv8jAAB,1014234,137,137.0,True
161,0011t00000Hnv8jAAB,1014241,137,137.0,True
161,0011t00000Hnv8jAAB,1015103,137,137.0,True
161,0011t00000Hnv8jAAB,1027240,137,137.0,True
161,0011t00000Hnv8jAAB,1013224,137,137.0,True
161,0011t00000Hnv8jAAB,1015914,137,137.0,True
161,0011t00000Hnv8jAAB,1015016,137,137.0,True
161,0011t00000Hnv8jAAB,1015040,137,137.0,True
161,0011t00000Hnv8jAAB,1015065,137,137.0,True
161,0011t00000Hnv8jAAB,1015072,137,137.0,True
161,0011t00000Hnv8jAAB,1013926,137,137.0,True
161,0011t00000Hnv8jAAB,1015117,137,137.0,True
161,0011t00000Hnv8jAAB,1015101,137,137.0,True
161,0011t00000Hnv8jAAB,1014235,137,137.0,True
161,0011t00000Hnv8jAAB,1015046,137,137.0,True
161,0011t00000Hnv8jAAB,1015061,137,137.0,True
161,0011t00000Hnv8jAAB,1014775,137,137.0,True
161,0011t00000Hnv8jAAB,1016637,137,137.0,True
161,0011t00000Hnv8jAAB,1015014,137,137.0,True
161,0011t00000Hnv8jAAB,1014240,137,137.0,True
161,0011t00000Hnv8jAAB,1015022,137,137.0,True
161,0011t00000Hnv8jAAB,1015077,137,137.0,True
161,0011t00000Hnv8jAAB,1015033,137,137.0,True
161,0011t00000Hnv8jAAB,1016577,137,137.0,True
161,0011t00000Hnv8jAAB,1015076,137,137.0,True
161,0011t00000Hnv8jAAB,1015098,137,137.0,True
161,0011t00000Hnv8jAAB,1015090,137,137.0,True
161,0011t00000Hnv8jAAB,1015051,137,137.0,True
161,0011t00000Hnv8jAAB,1015085,137,137.0,True
161,0011t00000Hnv8jAAB,1015119,137,137.0,True
161,0011t00000Hnv8jAAB,1013222,137,137.0,True
161,0011t00000Hnv8jAAB,1015008,137,137.0,True
161,0011t00000Hnv8jAAB,1015053,137,137.0,True
161,0011t00000Hnv8jAAB,1015067,137,137.0,True
161,0011t00000Hnv8jAAB,1015115,137,137.0,True
162,0011t00000Hnv8kAAB,1011054,24,24.0,True
162,0011t00000Hnv8kAAB,1012698,24,24.0,True
162,0011t00000Hnv8kAAB,1011050,24,24.0,True
162,0011t00000Hnv8kAAB,1011056,24,24.0,True
162,0011t00000Hnv8kAAB,1000490,24,24.0,True
162,0011t00000Hnv8kAAB,1000486,24,24.0,True
162,0011t00000Hnv8kAAB,1000491,24,24.0,True
162,0011t00000Hnv8kAAB,1011048,24,24.0,True
162,0011t00000Hnv8kAAB,1024872,24,24.0,True
162,0011t00000Hnv8kAAB,1011057,24,24.0,True
162,0011t00000Hnv8kAAB,1000487,24,24.0,True
162,0011t00000Hnv8kAAB,1011871,24,24.0,True
162,0011t00000Hnv8kAAB,1000485,24,24.0,True
162,0011t00000Hnv8kAAB,1011079,24,24.0,True
162,0011t00000Hnv8kAAB,1000484,24,24.0,True
162,0011t00000Hnv8kAAB,1011055,24,24.0,True
162,0011t00000Hnv8kAAB,1011047,24,24.0,True
162,0011t00000Hnv8kAAB,1011051,24,24.0,True
162,0011t00000Hnv8kAAB,1000492,24,24.0,True
162,0011t00000Hnv8kAAB,1000483,24,24.0,True
162,0011t00000Hnv8kAAB,1010909,24,24.0,True
162,0011t00000Hnv8kAAB,1015952,24,24.0,True
162,0011t00000Hnv8kAAB,1011049,24,24.0,True
162,0011t00000Hnv8kAAB,1024873,24,24.0,True
163,0011t00000Hnv8lAAB,1010899,1,1.0,True
164,0011t00000Hnv8mAAB,1011168,1,1.0,True
165,0011t00000Hnv8nAAB,1000521,2,2.0,True
165,0011t00000Hnv8nAAB,1000520,2,2.0,True
167,0011t00000Hnv8qAAB,1014494,1,1.0,True
170,0011t00000Hnv8vAAB,1014727,8,8.0,True
170,0011t00000Hnv8vAAB,1013819,8,8.0,True
170,0011t00000Hnv8vAAB,1014729,8,8.0,True
170,0011t00000Hnv8vAAB,1014728,8,8.0,True
170,0011t00000Hnv8vAAB,1013820,8,8.0,True
170,0011t00000Hnv8vAAB,1026991,8,8.0,True
170,0011t00000Hnv8vAAB,1013855,8,8.0,True
170,0011t00000Hnv8vAAB,1025170,8,8.0,True
171,0011t00000Hnv8wAAB,1014458,5,5.0,True
171,0011t00000Hnv8wAAB,1000113,5,5.0,True
171,0011t00000Hnv8wAAB,1013233,5,5.0,True
171,0011t00000Hnv8wAAB,1000112,5,5.0,True
171,0011t00000Hnv8wAAB,1000111,5,5.0,True
172,0011t00000Hnv8zAAB,1013688,1,1.0,True
173,0011t00000Hnv90AAB,1013172,4,4.0,True
173,0011t00000Hnv90AAB,1013173,4,4.0,True
173,0011t00000Hnv90AAB,1012790,4,4.0,True
173,0011t00000Hnv90AAB,1013422,4,4.0,True
174,0011t00000Hnv91AAB,1000036,1,1.0,True
175,0011t00000Hnv92AAB,1011988,8,8.0,True
175,0011t00000Hnv92AAB,1011994,8,8.0,True
175,0011t00000Hnv92AAB,1011992,8,8.0,True
175,0011t00000Hnv92AAB,1011991,8,8.0,True
175,0011t00000Hnv92AAB,1011995,8,8.0,True
175,0011t00000Hnv92AAB,1011990,8,8.0,True
175,0011t00000Hnv92AAB,1011989,8,8.0,True
175,0011t00000Hnv92AAB,1011993,8,8.0,True
176,0011t00000Hnv93AAB,1012714,2,2.0,True
176,0011t00000Hnv93AAB,1012720,2,2.0,True
178,0011t00000Hnv9AAAR,1011716,1,1.0,True
179,0011t00000Hnv9BAAR,1000439,3,3.0,True
179,0011t00000Hnv9BAAR,1010907,3,3.0,True
179,0011t00000Hnv9BAAR,1010908,3,3.0,True
180,0011t00000Hnv9CAAR,1013960,4,4.0,True
180,0011t00000Hnv9CAAR,1013959,4,4.0,True
180,0011t00000Hnv9CAAR,1013956,4,4.0,True
180,0011t00000Hnv9CAAR,1024584,4,4.0,True
185,0011t00000Hnv9KAAR,1013048,1,1.0,True
187,0011t00000Hnv9MAAR,1013957,1,1.0,True
188,0011t00000Hnv9NAAR,1013578,1,1.0,True
190,0011t00000Hnv9PAAR,1011279,2,2.0,True
190,0011t00000Hnv9PAAR,1011277,2,2.0,True
193,0011t00000Hnv9RAAR,1012701,9,9.0,True
193,0011t00000Hnv9RAAR,1012705,9,9.0,True
193,0011t00000Hnv9RAAR,1012710,9,9.0,True
193,0011t00000Hnv9RAAR,1012702,9,9.0,True
193,0011t00000Hnv9RAAR,1012706,9,9.0,True
193,0011t00000Hnv9RAAR,1012709,9,9.0,True
193,0011t00000Hnv9RAAR,1012708,9,9.0,True
193,0011t00000Hnv9RAAR,1012707,9,9.0,True
193,0011t00000Hnv9RAAR,1016176,9,9.0,True
194,0011t00000Hnv9SAAR,1011697,2,2.0,True
194,0011t00000Hnv9SAAR,1011698,2,2.0,True
195,0011t00000Hnv9UAAR,1000423,12,12.0,True
195,0011t00000Hnv9UAAR,1000116,12,12.0,True
195,0011t00000Hnv9UAAR,1000421,12,12.0,True
195,0011t00000Hnv9UAAR,1000420,12,12.0,True
195,0011t00000Hnv9UAAR,1000426,12,12.0,True
195,0011t00000Hnv9UAAR,1000424,12,12.0,True
195,0011t00000Hnv9UAAR,1000115,12,12.0,True
195,0011t00000Hnv9UAAR,1000117,12,12.0,True
195,0011t00000Hnv9UAAR,1016871,12,12.0,True
195,0011t00000Hnv9UAAR,1000422,12,12.0,True
195,0011t00000Hnv9UAAR,1000425,12,12.0,True
195,0011t00000Hnv9UAAR,1012019,12,12.0,True
196,0011t00000Hnv9VAAR,1011835,3,3.0,True
196,0011t00000Hnv9VAAR,1011834,3,3.0,True
196,0011t00000Hnv9VAAR,1011836,3,3.0,True
197,0011t00000Hnv9XAAR,1010898,2,2.0,True
197,0011t00000Hnv9XAAR,1010897,2,2.0,True
198,0011t00000Hnv9ZAAR,1013204,1,1.0,True
199,0011t00000TRCqTAAX,1013204,1,1.0,True
200,0011t00000Hnv9bAAB,1014780,1,1.0,True
201,0011t00000Hnv9cAAB,1015839,7,7.0,True
201,0011t00000Hnv9cAAB,1026761,7,7.0,True
201,0011t00000Hnv9cAAB,1013944,7,7.0,True
201,0011t00000Hnv9cAAB,1015841,7,7.0,True
201,0011t00000Hnv9cAAB,1014454,7,7.0,True
201,0011t00000Hnv9cAAB,1014456,7,7.0,True
201,0011t00000Hnv9cAAB,1015842,7,7.0,True
203,0013X00002WkkJ5QAJ,1025108,1,1.0,True
204,0011t00000Hnv9dAAB,1013561,4,4.0,True
204,0011t00000Hnv9dAAB,1013562,4,4.0,True
204,0011t00000Hnv9dAAB,1013560,4,4.0,True
204,0011t00000Hnv9dAAB,1014189,4,4.0,True
206,0011t00000Hnv9gAAB,1000482,2,2.0,True
206,0011t00000Hnv9gAAB,1000481,2,2.0,True
210,0011t00000Hnv9mAAB,1012053,5,5.0,True
210,0011t00000Hnv9mAAB,1025025,5,5.0,True
210,0011t00000Hnv9mAAB,1012054,5,5.0,True
210,0011t00000Hnv9mAAB,1014081,5,5.0,True
210,0011t00000Hnv9mAAB,1012052,5,5.0,True
212,0011t00000Hnv9pAAB,1015406,6,6.0,True
212,0011t00000Hnv9pAAB,1015403,6,6.0,True
212,0011t00000Hnv9pAAB,1015410,6,6.0,True
212,0011t00000Hnv9pAAB,1014268,6,6.0,True
212,0011t00000Hnv9pAAB,1015404,6,6.0,True
212,0011t00000Hnv9pAAB,1015409,6,6.0,True
214,0011t00000Hnv9rAAB,1013591,3,3.0,True
214,0011t00000Hnv9rAAB,1013590,3,3.0,True
214,0011t00000Hnv9rAAB,1013592,3,3.0,True
215,0011t00000Hnv9tAAB,1014529,9,9.0,True
215,0011t00000Hnv9tAAB,1014536,9,9.0,True
215,0011t00000Hnv9tAAB,1014231,9,9.0,True
215,0011t00000Hnv9tAAB,1014532,9,9.0,True
215,0011t00000Hnv9tAAB,1014530,9,9.0,True
215,0011t00000Hnv9tAAB,1014535,9,9.0,True
215,0011t00000Hnv9tAAB,1014534,9,9.0,True
215,0011t00000Hnv9tAAB,1014230,9,9.0,True
215,0011t00000Hnv9tAAB,1014531,9,9.0,True
216,0011t00000Hnv9vAAB,1013880,1,1.0,True
217,0011t00000Hnv9xAAB,1013066,3,3.0,True
217,0011t00000Hnv9xAAB,1013067,3,3.0,True
217,0011t00000Hnv9xAAB,1013065,3,3.0,True
218,0011t00000HnvA2AAJ,1011099,1,1.0,True
219,0011t00000HnvA5AAJ,1015345,1,1.0,True
221,0011t00000HnvABAAZ,1014019,1,1.0,True
222,0011t00000HnvACAAZ,1000038,1,1.0,True
223,0011t00000HnvADAAZ,1015447,1,1.0,True
224,0011t00000HnvAFAAZ,1000438,2,2.0,True
224,0011t00000HnvAFAAZ,1000461,2,2.0,True
225,0011t00000HnvAHAAZ,1011171,1,1.0,True
226,0011t00000HnvAJAAZ,1014045,2,2.0,True
226,0011t00000HnvAJAAZ,1014043,2,2.0,True
227,0011t00000HnvANAAZ,1013924,1,1.0,True
228,0011t00000HnvAPAAZ,1013848,1,1.0,True
229,0011t00000HnvAQAAZ,1014047,1,1.0,True
230,0011t00000HnvARAAZ,1000466,1,1.0,True
231,0011t00000HnvAUAAZ,1011041,1,1.0,True
232,0011t00000HnvAVAAZ,1013594,1,1.0,True
233,0011t00000HnvAYAAZ,1010903,1,1.0,True
234,0011t00000HnvAZAAZ,1012828,1,1.0,True
235,0011t00000HnvAaAAJ,1000864,1,1.0,True
236,0011t00000HnvAbAAJ,1013812,1,1.0,True
237,0011t00000HnvAcAAJ,1000040,1,1.0,True
238,0011t00000HnvAdAAJ,1014205,1,1.0,True
239,0011t00000HnvAeAAJ,1012907,1,1.0,True
240,0011t00000HnvAhAAJ,1013954,2,2.0,True
240,0011t00000HnvAhAAJ,1014204,2,2.0,True
241,0011t00000HnvAiAAJ,1014211,1,1.0,True
242,0011t00000HnvAkAAJ,1011396,1,1.0,True
243,0011t00000HnvAlAAJ,1000856,1,1.0,True
244,0011t00000HnvAmAAJ,1010918,1,1.0,True
245,0011t00000HnvApAAJ,1000868,1,1.0,True
246,0011t00000HnvAsAAJ,1012193,4,4.0,True
246,0011t00000HnvAsAAJ,1012192,4,4.0,True
246,0011t00000HnvAsAAJ,1012191,4,4.0,True
246,0011t00000HnvAsAAJ,1000126,4,4.0,True
251,0011t00000HnvAzAAJ,1011255,12,12.0,True
251,0011t00000HnvAzAAJ,1011254,12,12.0,True
251,0011t00000HnvAzAAJ,1011259,12,12.0,True
251,0011t00000HnvAzAAJ,1011262,12,12.0,True
251,0011t00000HnvAzAAJ,1011256,12,12.0,True
251,0011t00000HnvAzAAJ,1011296,12,12.0,True
251,0011t00000HnvAzAAJ,1011264,12,12.0,True
251,0011t00000HnvAzAAJ,1011261,12,12.0,True
251,0011t00000HnvAzAAJ,1011258,12,12.0,True
251,0011t00000HnvAzAAJ,1011260,12,12.0,True
251,0011t00000HnvAzAAJ,1011257,12,12.0,True
251,0011t00000HnvAzAAJ,1011263,12,12.0,True
252,0011t00000HnvB1AAJ,1015348,2,2.0,True
252,0011t00000HnvB1AAJ,1015347,2,2.0,True
253,0011t00000HnvB2AAJ,1013759,3,3.0,True
253,0011t00000HnvB2AAJ,1011320,3,3.0,True
253,0011t00000HnvB2AAJ,1013760,3,3.0,True
254,0011t00000HnvB3AAJ,1013733,3,3.0,True
254,0011t00000HnvB3AAJ,1013731,3,3.0,True
254,0011t00000HnvB3AAJ,1013132,3,3.0,True
255,0011t00000HnvB4AAJ,1011764,1,1.0,True
256,0011t00000HnvB5AAJ,1015714,7,7.0,True
256,0011t00000HnvB5AAJ,1015711,7,7.0,True
256,0011t00000HnvB5AAJ,1015719,7,7.0,True
256,0011t00000HnvB5AAJ,1015712,7,7.0,True
256,0011t00000HnvB5AAJ,1015713,7,7.0,True
256,0011t00000HnvB5AAJ,1015709,7,7.0,True
256,0011t00000HnvB5AAJ,1015710,7,7.0,True
257,0011t00000HnvB8AAJ,1000502,26,26.0,True
257,0011t00000HnvB8AAJ,1000025,26,26.0,True
257,0011t00000HnvB8AAJ,1000413,26,26.0,True
257,0011t00000HnvB8AAJ,1000404,26,26.0,True
257,0011t00000HnvB8AAJ,1000403,26,26.0,True
257,0011t00000HnvB8AAJ,1000407,26,26.0,True
257,0011t00000HnvB8AAJ,1000021,26,26.0,True
257,0011t00000HnvB8AAJ,1000418,26,26.0,True
257,0011t00000HnvB8AAJ,1000427,26,26.0,True
257,0011t00000HnvB8AAJ,1000411,26,26.0,True
257,0011t00000HnvB8AAJ,1000429,26,26.0,True
257,0011t00000HnvB8AAJ,1000415,26,26.0,True
257,0011t00000HnvB8AAJ,1000405,26,26.0,True
257,0011t00000HnvB8AAJ,1000417,26,26.0,True
257,0011t00000HnvB8AAJ,1000007,26,26.0,True
257,0011t00000HnvB8AAJ,1000419,26,26.0,True
257,0011t00000HnvB8AAJ,1000408,26,26.0,True
257,0011t00000HnvB8AAJ,1013055,26,26.0,True
257,0011t00000HnvB8AAJ,1000416,26,26.0,True
257,0011t00000HnvB8AAJ,1000410,26,26.0,True
257,0011t00000HnvB8AAJ,1000409,26,26.0,True
257,0011t00000HnvB8AAJ,1000406,26,26.0,True
257,0011t00000HnvB8AAJ,1016638,26,26.0,True
257,0011t00000HnvB8AAJ,1000501,26,26.0,True
257,0011t00000HnvB8AAJ,1000414,26,26.0,True
257,0011t00000HnvB8AAJ,1000428,26,26.0,True
261,0011t00000HnvBCAAZ,1012211,8,8.0,True
261,0011t00000HnvBCAAZ,1012213,8,8.0,True
261,0011t00000HnvBCAAZ,1012207,8,8.0,True
261,0011t00000HnvBCAAZ,1012206,8,8.0,True
261,0011t00000HnvBCAAZ,1012210,8,8.0,True
261,0011t00000HnvBCAAZ,1012212,8,8.0,True
261,0011t00000HnvBCAAZ,1012209,8,8.0,True
261,0011t00000HnvBCAAZ,1012208,8,8.0,True
262,0011t00000HnvBDAAZ,1014777,1,1.0,True
263,0011t00000HnvBEAAZ,1000580,4,4.0,True
263,0011t00000HnvBEAAZ,1000582,4,4.0,True
263,0011t00000HnvBEAAZ,1024526,4,4.0,True
263,0011t00000HnvBEAAZ,1000581,4,4.0,True
264,0011t00000HnvBFAAZ,1014986,2,2.0,True
264,0011t00000HnvBFAAZ,1014985,2,2.0,True
266,0011t00000HnvBJAAZ,1012756,1,1.0,True
268,0011t00000Hntx4AAB,1015353,1,1.0,True
269,0011t00000HnvBMAAZ,1011876,1,1.0,True
271,0011t00000HnvBOAAZ,1013769,2,2.0,True
271,0011t00000HnvBOAAZ,1013770,2,2.0,True
273,0011t00000HnvBQAAZ,1014638,3,3.0,True
273,0011t00000HnvBQAAZ,1014637,3,3.0,True
273,0011t00000HnvBQAAZ,1014639,3,3.0,True
274,0011t00000HnvEXAAZ,1000374,10,10.0,True
274,0011t00000HnvEXAAZ,1012752,10,10.0,True
274,0011t00000HnvEXAAZ,1012753,10,10.0,True
274,0011t00000HnvEXAAZ,1013001,10,10.0,True
274,0011t00000HnvEXAAZ,1013002,10,10.0,True
274,0011t00000HnvEXAAZ,1013004,10,10.0,True
274,0011t00000HnvEXAAZ,1013003,10,10.0,True
274,0011t00000HnvEXAAZ,1000377,10,10.0,True
274,0011t00000HnvEXAAZ,1000373,10,10.0,True
274,0011t00000HnvEXAAZ,1000376,10,10.0,True
275,0011t00000HnvAoAAJ,1011032,1,1.0,True
277,0011t00000HnvEZAAZ,1012216,6,6.0,True
277,0011t00000HnvEZAAZ,1012217,6,6.0,True
277,0011t00000HnvEZAAZ,1012218,6,6.0,True
277,0011t00000HnvEZAAZ,1012220,6,6.0,True
277,0011t00000HnvEZAAZ,1012219,6,6.0,True
277,0011t00000HnvEZAAZ,1011796,6,6.0,True
278,0011t00000HnvEbAAJ,1014975,1,1.0,True
279,0011t00000HnvEcAAJ,1012000,1,1.0,True
280,0011t00000HnvEdAAJ,1015445,2,2.0,True
280,0011t00000HnvEdAAJ,1015446,2,2.0,True
281,0011t00000HnvEeAAJ,1025479,6,6.0,True
281,0011t00000HnvEeAAJ,1015694,6,6.0,True
281,0011t00000HnvEeAAJ,1015671,6,6.0,True
281,0011t00000HnvEeAAJ,1015122,6,6.0,True
281,0011t00000HnvEeAAJ,1015670,6,6.0,True
281,0011t00000HnvEeAAJ,1015123,6,6.0,True
282,0011t00000HnvEfAAJ,1012891,8,8.0,True
282,0011t00000HnvEfAAJ,1012898,8,8.0,True
282,0011t00000HnvEfAAJ,1012899,8,8.0,True
282,0011t00000HnvEfAAJ,1012028,8,8.0,True
282,0011t00000HnvEfAAJ,1012894,8,8.0,True
282,0011t00000HnvEfAAJ,1012895,8,8.0,True
282,0011t00000HnvEfAAJ,1012890,8,8.0,True
282,0011t00000HnvEfAAJ,1012029,8,8.0,True
301,0013X00002abAQpQAM,1027337,1,1.0,True
302,0011t00000HnvEhAAJ,1014836,3,3.0,True
302,0011t00000HnvEhAAJ,1000098,3,3.0,True
302,0011t00000HnvEhAAJ,1000099,3,3.0,True
303,0011t00000HnvEjAAJ,1013863,3,3.0,True
303,0011t00000HnvEjAAJ,1013864,3,3.0,True
303,0011t00000HnvEjAAJ,1013862,3,3.0,True
304,0011t00000HnvEkAAJ,1013586,2,2.0,True
304,0011t00000HnvEkAAJ,1013543,2,2.0,True
305,0011t00000HnvEmAAJ,1012007,1,1.0,True
306,0011t00000HnvEnAAJ,1000458,2,2.0,True
306,0011t00000HnvEnAAJ,1000459,2,2.0,True
307,0011t00000HnvEoAAJ,1016172,2,2.0,True
307,0011t00000HnvEoAAJ,1015007,2,2.0,True
308,0011t00000HnvEpAAJ,1011425,1,1.0,True
310,0011t00000HnwQdAAJ,1024532,1,1.0,True
311,0011t00000HnvErAAJ,1015736,9,9.0,True
311,0011t00000HnvErAAJ,1015616,9,9.0,True
311,0011t00000HnvErAAJ,1024392,9,9.0,True
311,0011t00000HnvErAAJ,1015738,9,9.0,True
311,0011t00000HnvErAAJ,1015735,9,9.0,True
311,0011t00000HnvErAAJ,1015695,9,9.0,True
311,0011t00000HnvErAAJ,1015734,9,9.0,True
311,0011t00000HnvErAAJ,1015615,9,9.0,True
311,0011t00000HnvErAAJ,1015617,9,9.0,True
312,0011t00000HnvEsAAJ,1014789,7,7.0,True
312,0011t00000HnvEsAAJ,1016751,7,7.0,True
312,0011t00000HnvEsAAJ,1014790,7,7.0,True
312,0011t00000HnvEsAAJ,1014792,7,7.0,True
312,0011t00000HnvEsAAJ,1014793,7,7.0,True
312,0011t00000HnvEsAAJ,1014717,7,7.0,True
312,0011t00000HnvEsAAJ,1014791,7,7.0,True
315,0011t00000HnvEuAAJ,1010900,1,1.0,True
318,0011t00000HnvF1AAJ,1011150,32,32.0,True
318,0011t00000HnvF1AAJ,1011145,32,32.0,True
318,0011t00000HnvF1AAJ,1011154,32,32.0,True
318,0011t00000HnvF1AAJ,1011148,32,32.0,True
318,0011t00000HnvF1AAJ,1015352,32,32.0,True
318,0011t00000HnvF1AAJ,1011131,32,32.0,True
318,0011t00000HnvF1AAJ,1012137,32,32.0,True
318,0011t00000HnvF1AAJ,1011130,32,32.0,True
318,0011t00000HnvF1AAJ,1011139,32,32.0,True
318,0011t00000HnvF1AAJ,1016729,32,32.0,True
318,0011t00000HnvF1AAJ,1015331,32,32.0,True
318,0011t00000HnvF1AAJ,1011144,32,32.0,True
318,0011t00000HnvF1AAJ,1011152,32,32.0,True
318,0011t00000HnvF1AAJ,1015802,32,32.0,True
318,0011t00000HnvF1AAJ,1011156,32,32.0,True
318,0011t00000HnvF1AAJ,1013937,32,32.0,True
318,0011t00000HnvF1AAJ,1011146,32,32.0,True
318,0011t00000HnvF1AAJ,1011158,32,32.0,True
318,0011t00000HnvF1AAJ,1011129,32,32.0,True
318,0011t00000HnvF1AAJ,1013936,32,32.0,True
318,0011t00000HnvF1AAJ,1011140,32,32.0,True
318,0011t00000HnvF1AAJ,1024944,32,32.0,True
318,0011t00000HnvF1AAJ,1011155,32,32.0,True
318,0011t00000HnvF1AAJ,1015875,32,32.0,True
318,0011t00000HnvF1AAJ,1011151,32,32.0,True
318,0011t00000HnvF1AAJ,1016544,32,32.0,True
318,0011t00000HnvF1AAJ,1011143,32,32.0,True
318,0011t00000HnvF1AAJ,1015332,32,32.0,True
318,0011t00000HnvF1AAJ,1011147,32,32.0,True
318,0011t00000HnvF1AAJ,1015302,32,32.0,True
318,0011t00000HnvF1AAJ,1011137,32,32.0,True
318,0011t00000HnvF1AAJ,1011157,32,32.0,True
319,0011t00000Hnv8gAAB,1015931,10,10.0,True
319,0011t00000Hnv8gAAB,1013090,10,10.0,True
319,0011t00000Hnv8gAAB,1015930,10,10.0,True
319,0011t00000Hnv8gAAB,1025444,10,10.0,True
319,0011t00000Hnv8gAAB,1015927,10,10.0,True
319,0011t00000Hnv8gAAB,1015928,10,10.0,True
319,0011t00000Hnv8gAAB,1015929,10,10.0,True
319,0011t00000Hnv8gAAB,1015925,10,10.0,True
319,0011t00000Hnv8gAAB,1015924,10,10.0,True
319,0011t00000Hnv8gAAB,1015926,10,10.0,True
320,0011t00000HnvF4AAJ,1011246,2,2.0,True
320,0011t00000HnvF4AAJ,1011238,2,2.0,True
321,0011t00000HnvF5AAJ,1013856,1,1.0,True
322,0011t00000Hnv9YAAR,1000402,1,1.0,True
323,0011t00000HnvF7AAJ,1012812,35,35.0,True
323,0011t00000HnvF7AAJ,1012813,35,35.0,True
323,0011t00000HnvF7AAJ,1015589,35,35.0,True
323,0011t00000HnvF7AAJ,1015732,35,35.0,True
323,0011t00000HnvF7AAJ,1015578,35,35.0,True
323,0011t00000HnvF7AAJ,1015730,35,35.0,True
323,0011t00000HnvF7AAJ,1015587,35,35.0,True
323,0011t00000HnvF7AAJ,1015590,35,35.0,True
323,0011t00000HnvF7AAJ,1015592,35,35.0,True
323,0011t00000HnvF7AAJ,1000359,35,35.0,True
323,0011t00000HnvF7AAJ,1015591,35,35.0,True
323,0011t00000HnvF7AAJ,1015586,35,35.0,True
323,0011t00000HnvF7AAJ,1015733,35,35.0,True
323,0011t00000HnvF7AAJ,1015582,35,35.0,True
323,0011t00000HnvF7AAJ,1015576,35,35.0,True
323,0011t00000HnvF7AAJ,1012808,35,35.0,True
323,0011t00000HnvF7AAJ,1015584,35,35.0,True
323,0011t00000HnvF7AAJ,1015583,35,35.0,True
323,0011t00000HnvF7AAJ,1015574,35,35.0,True
323,0011t00000HnvF7AAJ,1012807,35,35.0,True
323,0011t00000HnvF7AAJ,1015731,35,35.0,True
323,0011t00000HnvF7AAJ,1000026,35,35.0,True
323,0011t00000HnvF7AAJ,1015575,35,35.0,True
323,0011t00000HnvF7AAJ,1015593,35,35.0,True
323,0011t00000HnvF7AAJ,1015585,35,35.0,True
323,0011t00000HnvF7AAJ,1015579,35,35.0,True
323,0011t00000HnvF7AAJ,1012809,35,35.0,True
323,0011t00000HnvF7AAJ,1015595,35,35.0,True
323,0011t00000HnvF7AAJ,1015594,35,35.0,True
323,0011t00000HnvF7AAJ,1015588,35,35.0,True
323,0011t00000HnvF7AAJ,1015580,35,35.0,True
323,0011t00000HnvF7AAJ,1015577,35,35.0,True
323,0011t00000HnvF7AAJ,1012810,35,35.0,True
323,0011t00000HnvF7AAJ,1015581,35,35.0,True
323,0011t00000HnvF7AAJ,1012811,35,35.0,True
325,0011t00000HnvFCAAZ,1016712,1,1.0,True
326,0011t00000HnvFDAAZ,1013690,2,2.0,True
326,0011t00000HnvFDAAZ,1013175,2,2.0,True
329,0011t00000HnvFGAAZ,1013597,1,1.0,True
330,0011t00000HnvFJAAZ,1010901,1,1.0,True
333,0011t00000HnvFLAAZ,1011045,4,4.0,True
333,0011t00000HnvFLAAZ,1011044,4,4.0,True
333,0011t00000HnvFLAAZ,1011043,4,4.0,True
333,0011t00000HnvFLAAZ,1011046,4,4.0,True
337,0011t00000HnvFOAAZ,1015137,1,1.0,True
339,0011t00000HnvFUAAZ,1012941,5,5.0,True
339,0011t00000HnvFUAAZ,1013927,5,5.0,True
339,0011t00000HnvFUAAZ,1013929,5,5.0,True
339,0011t00000HnvFUAAZ,1011734,5,5.0,True
339,0011t00000HnvFUAAZ,1013928,5,5.0,True
343,0011t00000HnvFeAAJ,1011855,3,3.0,True
343,0011t00000HnvFeAAJ,1011856,3,3.0,True
343,0011t00000HnvFeAAJ,1025190,3,3.0,True
344,0011t00000HnvFgAAJ,1011907,1,1.0,True
345,0011t00000HnvFhAAJ,1013128,3,3.0,True
345,0011t00000HnvFhAAJ,1013118,3,3.0,True
345,0011t00000HnvFhAAJ,1013432,3,3.0,True
346,0011t00000HnvFkAAJ,1014911,1,1.0,True
347,0011t00000HnvFlAAJ,1014421,3,3.0,True
347,0011t00000HnvFlAAJ,1014420,3,3.0,True
347,0011t00000HnvFlAAJ,1014422,3,3.0,True
356,0011t00000HnvFnAAJ,1015372,5,5.0,True
356,0011t00000HnvFnAAJ,1014694,5,5.0,True
356,0011t00000HnvFnAAJ,1015371,5,5.0,True
356,0011t00000HnvFnAAJ,1014695,5,5.0,True
356,0011t00000HnvFnAAJ,1015373,5,5.0,True
357,0011t00000HnvFoAAJ,1011378,5,5.0,True
357,0011t00000HnvFoAAJ,1011379,5,5.0,True
357,0011t00000HnvFoAAJ,1011380,5,5.0,True
357,0011t00000HnvFoAAJ,1011381,5,5.0,True
357,0011t00000HnvFoAAJ,1011377,5,5.0,True
358,0011t00000HnvFpAAJ,1013540,1,1.0,True
359,0011t00000HnvFqAAJ,1015679,5,5.0,True
359,0011t00000HnvFqAAJ,1012150,5,5.0,True
359,0011t00000HnvFqAAJ,1012827,5,5.0,True
359,0011t00000HnvFqAAJ,1013153,5,5.0,True
359,0011t00000HnvFqAAJ,1012151,5,5.0,True
361,0011t00000HnwlEAAR,1000843,1,1.0,True
362,0011t00000HnvFuAAJ,1015991,5,5.0,True
362,0011t00000HnvFuAAJ,1015992,5,5.0,True
362,0011t00000HnvFuAAJ,1015218,5,5.0,True
362,0011t00000HnvFuAAJ,1000843,5,5.0,True
362,0011t00000HnvFuAAJ,1015990,5,5.0,True
363,0011t00000HnvFvAAJ,1013119,2,2.0,True
363,0011t00000HnvFvAAJ,1013120,2,2.0,True
364,0011t00000HnvFxAAJ,1014982,4,4.0,True
364,0011t00000HnvFxAAJ,1013920,4,4.0,True
364,0011t00000HnvFxAAJ,1014983,4,4.0,True
364,0011t00000HnvFxAAJ,1013921,4,4.0,True
366,0011t00000HnvG3AAJ,1012687,3,3.0,True
366,0011t00000HnvG3AAJ,1012686,3,3.0,True
366,0011t00000HnvG3AAJ,1012685,3,3.0,True
367,0011t00000HnvG4AAJ,1011075,5,5.0,True
367,0011t00000HnvG4AAJ,1011074,5,5.0,True
367,0011t00000HnvG4AAJ,1011319,5,5.0,True
367,0011t00000HnvG4AAJ,1011076,5,5.0,True
367,0011t00000HnvG4AAJ,1011073,5,5.0,True
369,0011t00000HnvG8AAJ,1013207,5,5.0,True
369,0011t00000HnvG8AAJ,1013208,5,5.0,True
369,0011t00000HnvG8AAJ,1013206,5,5.0,True
369,0011t00000HnvG8AAJ,1013209,5,5.0,True
369,0011t00000HnvG8AAJ,1013210,5,5.0,True
370,0011t00000HnvGBAAZ,1000729,1,1.0,True
371,0011t00000HnvGDAAZ,1024331,3,3.0,True
371,0011t00000HnvGDAAZ,1011865,3,3.0,True
371,0011t00000HnvGDAAZ,1016575,3,3.0,True
378,0011t00000sVQeTAAW,1024520,1,1.0,True
380,0013X00002WlWy5QAF,1025126,1,1.0,True
391,0011t00000HnvqhAAB,1015306,1,1.0,True
392,0011t00000HnvNOAAZ,1015277,3,3.0,True
392,0011t00000HnvNOAAZ,1015280,3,3.0,True
392,0011t00000HnvNOAAZ,1015278,3,3.0,True
394,0011t00000HnvSPAAZ,1024942,4,4.0,True
394,0011t00000HnvSPAAZ,1024943,4,4.0,True
394,0011t00000HnvSPAAZ,1016678,4,4.0,True
394,0011t00000HnvSPAAZ,1024941,4,4.0,True
395,0011t00000HnvSiAAJ,1015324,16,16.0,True
395,0011t00000HnvSiAAJ,1015872,16,16.0,True
395,0011t00000HnvSiAAJ,1015330,16,16.0,True
395,0011t00000HnvSiAAJ,1015869,16,16.0,True
395,0011t00000HnvSiAAJ,1015325,16,16.0,True
395,0011t00000HnvSiAAJ,1015864,16,16.0,True
395,0011t00000HnvSiAAJ,1015863,16,16.0,True
395,0011t00000HnvSiAAJ,1015328,16,16.0,True
395,0011t00000HnvSiAAJ,1015871,16,16.0,True
395,0011t00000HnvSiAAJ,1015865,16,16.0,True
395,0011t00000HnvSiAAJ,1015326,16,16.0,True
395,0011t00000HnvSiAAJ,1015866,16,16.0,True
395,0011t00000HnvSiAAJ,1015329,16,16.0,True
395,0011t00000HnvSiAAJ,1015870,16,16.0,True
395,0011t00000HnvSiAAJ,1015867,16,16.0,True
395,0011t00000HnvSiAAJ,1015327,16,16.0,True
397,0011t00000HnvT3AAJ,1014419,1,1.0,True
398,0011t00000HnvT7AAJ,1026647,3,3.0,True
398,0011t00000HnvT7AAJ,1026646,3,3.0,True
398,0011t00000HnvT7AAJ,1026648,3,3.0,True
399,0011t00000HnvTXAAZ,1015514,7,7.0,True
399,0011t00000HnvTXAAZ,1014691,7,7.0,True
399,0011t00000HnvTXAAZ,1014693,7,7.0,True
399,0011t00000HnvTXAAZ,1015516,7,7.0,True
399,0011t00000HnvTXAAZ,1015517,7,7.0,True
399,0011t00000HnvTXAAZ,1015515,7,7.0,True
399,0011t00000HnvTXAAZ,1014692,7,7.0,True
400,0011t00000HnvWuAAJ,1014457,1,1.0,True
402,0011t00000HnvXYAAZ,1015321,1,1.0,True
406,0011t00000HnwnLAAR,1016692,1,1.0,True
408,0011t00000HntpSAAR,1016601,1,1.0,True
409,0011t00000HnvZjAAJ,1014041,2,2.0,True
409,0011t00000HnvZjAAJ,1014677,2,2.0,True
411,0013X00002acQPdQAM,1025496,1,1.0,True
412,0011t00000f8mcwAAA,1016478,1,1.0,True
419,0011t00000HnvfqAAB,1015861,17,17.0,True
419,0011t00000HnvfqAAB,1014702,17,17.0,True
419,0011t00000HnvfqAAB,1016399,17,17.0,True
419,0011t00000HnvfqAAB,1014085,17,17.0,True
419,0011t00000HnvfqAAB,1012824,17,17.0,True
419,0011t00000HnvfqAAB,1012819,17,17.0,True
419,0011t00000HnvfqAAB,1016400,17,17.0,True
419,0011t00000HnvfqAAB,1012820,17,17.0,True
419,0011t00000HnvfqAAB,1012821,17,17.0,True
419,0011t00000HnvfqAAB,1015002,17,17.0,True
419,0011t00000HnvfqAAB,1012822,17,17.0,True
419,0011t00000HnvfqAAB,1015862,17,17.0,True
419,0011t00000HnvfqAAB,1012823,17,17.0,True
419,0011t00000HnvfqAAB,1012825,17,17.0,True
419,0011t00000HnvfqAAB,1012826,17,17.0,True
419,0011t00000HnvfqAAB,1012818,17,17.0,True
419,0011t00000HnvfqAAB,1014705,17,17.0,True
420,0011t00000Hnvg2AAB,1015432,33,33.0,True
420,0011t00000Hnvg2AAB,1015415,33,33.0,True
420,0011t00000Hnvg2AAB,1027041,33,33.0,True
420,0011t00000Hnvg2AAB,1015444,33,33.0,True
420,0011t00000Hnvg2AAB,1015413,33,33.0,True
420,0011t00000Hnvg2AAB,1015131,33,33.0,True
420,0011t00000Hnvg2AAB,1015422,33,33.0,True
420,0011t00000Hnvg2AAB,1015418,33,33.0,True
420,0011t00000Hnvg2AAB,1015429,33,33.0,True
420,0011t00000Hnvg2AAB,1015427,33,33.0,True
420,0011t00000Hnvg2AAB,1015423,33,33.0,True
420,0011t00000Hnvg2AAB,1015431,33,33.0,True
420,0011t00000Hnvg2AAB,1015890,33,33.0,True
420,0011t00000Hnvg2AAB,1015417,33,33.0,True
420,0011t00000Hnvg2AAB,1015435,33,33.0,True
420,0011t00000Hnvg2AAB,1015419,33,33.0,True
420,0011t00000Hnvg2AAB,1025022,33,33.0,True
420,0011t00000Hnvg2AAB,1015428,33,33.0,True
420,0011t00000Hnvg2AAB,1015420,33,33.0,True
420,0011t00000Hnvg2AAB,1015426,33,33.0,True
420,0011t00000Hnvg2AAB,1015414,33,33.0,True
420,0011t00000Hnvg2AAB,1015441,33,33.0,True
420,0011t00000Hnvg2AAB,1015421,33,33.0,True
420,0011t00000Hnvg2AAB,1015436,33,33.0,True
420,0011t00000Hnvg2AAB,1014963,33,33.0,True
420,0011t00000Hnvg2AAB,1025363,33,33.0,True
420,0011t00000Hnvg2AAB,1015430,33,33.0,True
420,0011t00000Hnvg2AAB,1015433,33,33.0,True
420,0011t00000Hnvg2AAB,1015440,33,33.0,True
420,0011t00000Hnvg2AAB,1015442,33,33.0,True
420,0011t00000Hnvg2AAB,1014962,33,33.0,True
420,0011t00000Hnvg2AAB,1015416,33,33.0,True
420,0011t00000Hnvg2AAB,1014961,33,33.0,True
421,0011t00000HnvjHAAR,1012744,2,2.0,True
421,0011t00000HnvjHAAR,1014277,2,2.0,True
422,0013X00002SOgUpQAL,1016404,1,1.0,True
424,0011t00000HnvkgAAB,1013498,4,4.0,True
424,0011t00000HnvkgAAB,1013499,4,4.0,True
424,0011t00000HnvkgAAB,1013500,4,4.0,True
424,0011t00000HnvkgAAB,1013501,4,4.0,True
427,0011t00000HnvlxAAB,1027449,1,1.0,True
428,0011t00000HnvqbAAB,1016605,21,21.0,True
428,0011t00000HnvqbAAB,1016628,21,21.0,True
428,0011t00000HnvqbAAB,1016614,21,21.0,True
428,0011t00000HnvqbAAB,1016620,21,21.0,True
428,0011t00000HnvqbAAB,1016618,21,21.0,True
428,0011t00000HnvqbAAB,1016609,21,21.0,True
428,0011t00000HnvqbAAB,1016611,21,21.0,True
428,0011t00000HnvqbAAB,1016622,21,21.0,True
428,0011t00000HnvqbAAB,1016612,21,21.0,True
428,0011t00000HnvqbAAB,1016610,21,21.0,True
428,0011t00000HnvqbAAB,1016604,21,21.0,True
428,0011t00000HnvqbAAB,1016606,21,21.0,True
428,0011t00000HnvqbAAB,1016619,21,21.0,True
428,0011t00000HnvqbAAB,1016613,21,21.0,True
428,0011t00000HnvqbAAB,1016914,21,21.0,True
428,0011t00000HnvqbAAB,1016617,21,21.0,True
428,0011t00000HnvqbAAB,1016608,21,21.0,True
428,0011t00000HnvqbAAB,1016621,21,21.0,True
428,0011t00000HnvqbAAB,1016625,21,21.0,True
428,0011t00000HnvqbAAB,1016616,21,21.0,True
428,0011t00000HnvqbAAB,1016607,21,21.0,True
429,0011t00000HnvMKAAZ,1014288,1,1.0,True
430,0011t00000Hnvr7AAB,1024868,1,1.0,True
431,0011t00000g8w2pAAA,1016070,1,1.0,True
433,0011t00000HnvwlAAB,1014804,5,5.0,True
433,0011t00000HnvwlAAB,1014803,5,5.0,True
433,0011t00000HnvwlAAB,1014801,5,5.0,True
433,0011t00000HnvwlAAB,1014802,5,5.0,True
433,0011t00000HnvwlAAB,1014726,5,5.0,True
435,0011t00000Hnvx7AAB,1010932,3,3.0,True
435,0011t00000Hnvx7AAB,1010933,3,3.0,True
435,0011t00000Hnvx7AAB,1010934,3,3.0,True
437,0011t00000Hnw1DAAR,1016397,6,6.0,True
437,0011t00000Hnw1DAAR,1016818,6,6.0,True
437,0011t00000Hnw1DAAR,1016395,6,6.0,True
437,0011t00000Hnw1DAAR,1016819,6,6.0,True
437,0011t00000Hnw1DAAR,1016820,6,6.0,True
437,0011t00000Hnw1DAAR,1016821,6,6.0,True
438,0011t00000Hnw1TAAR,1016699,6,6.0,True
438,0011t00000Hnw1TAAR,1016703,6,6.0,True
438,0011t00000Hnw1TAAR,1016700,6,6.0,True
438,0011t00000Hnw1TAAR,1027557,6,6.0,True
438,0011t00000Hnw1TAAR,1016701,6,6.0,True
438,0011t00000Hnw1TAAR,1016698,6,6.0,True
440,0011t00000Hnw1eAAB,1015379,2,2.0,True
440,0011t00000Hnw1eAAB,1015380,2,2.0,True
442,0011t00000Hnw24AAB,1026188,31,31.0,True
442,0011t00000Hnw24AAB,1024886,31,31.0,True
442,0011t00000Hnw24AAB,1024890,31,31.0,True
442,0011t00000Hnw24AAB,1026186,31,31.0,True
442,0011t00000Hnw24AAB,1024885,31,31.0,True
442,0011t00000Hnw24AAB,1026178,31,31.0,True
442,0011t00000Hnw24AAB,1026175,31,31.0,True
442,0011t00000Hnw24AAB,1024889,31,31.0,True
442,0011t00000Hnw24AAB,1024882,31,31.0,True
442,0011t00000Hnw24AAB,1026185,31,31.0,True
442,0011t00000Hnw24AAB,1024887,31,31.0,True
442,0011t00000Hnw24AAB,1026179,31,31.0,True
442,0011t00000Hnw24AAB,1026192,31,31.0,True
442,0011t00000Hnw24AAB,1026194,31,31.0,True
442,0011t00000Hnw24AAB,1024884,31,31.0,True
442,0011t00000Hnw24AAB,1024883,31,31.0,True
442,0011t00000Hnw24AAB,1026195,31,31.0,True
442,0011t00000Hnw24AAB,1026181,31,31.0,True
442,0011t00000Hnw24AAB,1026177,31,31.0,True
442,0011t00000Hnw24AAB,1026190,31,31.0,True
442,0011t00000Hnw24AAB,1026189,31,31.0,True
442,0011t00000Hnw24AAB,1026191,31,31.0,True
442,0011t00000Hnw24AAB,1026187,31,31.0,True
442,0011t00000Hnw24AAB,1026193,31,31.0,True
442,0011t00000Hnw24AAB,1026180,31,31.0,True
442,0011t00000Hnw24AAB,1026184,31,31.0,True
442,0011t00000Hnw24AAB,1026176,31,31.0,True
442,0011t00000Hnw24AAB,1024888,31,31.0,True
442,0011t00000Hnw24AAB,1026182,31,31.0,True
442,0011t00000Hnw24AAB,1024891,31,31.0,True
442,0011t00000Hnw24AAB,1026183,31,31.0,True
443,0011t00000Hnw2HAAR,1015727,1,1.0,True
444,0011t00000Hnw2OAAR,1027290,1,1.0,True
445,0011t00000Hnw2bAAB,1024450,1,1.0,True
446,0011t00000YPF1qAAH,1016267,1,1.0,True
447,0011t00000Hnw2rAAB,1016743,3,3.0,True
447,0011t00000Hnw2rAAB,1013092,3,3.0,True
447,0011t00000Hnw2rAAB,1016744,3,3.0,True
449,0011t00000Hnw83AAB,1024420,1,1.0,True
450,0011t00000Hnw8GAAR,1016788,1,1.0,True
451,0011t00000Hnw8LAAR,1024667,3,3.0,True
451,0011t00000Hnw8LAAR,1024669,3,3.0,True
451,0011t00000Hnw8LAAR,1024668,3,3.0,True
453,0011t00000Hnw8fAAB,1026421,3,3.0,True
453,0011t00000Hnw8fAAB,1026423,3,3.0,True
453,0011t00000Hnw8fAAB,1026422,3,3.0,True
454,0011t00000Hnw8kAAB,1016409,5,5.0,True
454,0011t00000Hnw8kAAB,1016410,5,5.0,True
454,0011t00000Hnw8kAAB,1017437,5,5.0,True
454,0011t00000Hnw8kAAB,1016408,5,5.0,True
454,0011t00000Hnw8kAAB,1016407,5,5.0,True
455,0011t00000Hnw8rAAB,1025649,10,10.0,True
455,0011t00000Hnw8rAAB,1026135,10,10.0,True
455,0011t00000Hnw8rAAB,1025650,10,10.0,True
455,0011t00000Hnw8rAAB,1026112,10,10.0,True
455,0011t00000Hnw8rAAB,1025651,10,10.0,True
455,0011t00000Hnw8rAAB,1026097,10,10.0,True
455,0011t00000Hnw8rAAB,1026085,10,10.0,True
455,0011t00000Hnw8rAAB,1026115,10,10.0,True
455,0011t00000Hnw8rAAB,1026101,10,10.0,True
455,0011t00000Hnw8rAAB,1026083,10,10.0,True
456,0011t00000Hnw91AAB,1010888,13,13.0,True
456,0011t00000Hnw91AAB,1010891,13,13.0,True
456,0011t00000Hnw91AAB,1010890,13,13.0,True
456,0011t00000Hnw91AAB,1016152,13,13.0,True
456,0011t00000Hnw91AAB,1016074,13,13.0,True
456,0011t00000Hnw91AAB,1010892,13,13.0,True
456,0011t00000Hnw91AAB,1010904,13,13.0,True
456,0011t00000Hnw91AAB,1016073,13,13.0,True
456,0011t00000Hnw91AAB,1010895,13,13.0,True
456,0011t00000Hnw91AAB,1016077,13,13.0,True
456,0011t00000Hnw91AAB,1016151,13,13.0,True
456,0011t00000Hnw91AAB,1016076,13,13.0,True
456,0011t00000Hnw91AAB,1016075,13,13.0,True
457,0011t00000Hnw9LAAR,1024542,37,37.0,True
457,0011t00000Hnw9LAAR,1024545,37,37.0,True
457,0011t00000Hnw9LAAR,1025006,37,37.0,True
457,0011t00000Hnw9LAAR,1025007,37,37.0,True
457,0011t00000Hnw9LAAR,1025000,37,37.0,True
457,0011t00000Hnw9LAAR,1024994,37,37.0,True
457,0011t00000Hnw9LAAR,1025004,37,37.0,True
457,0011t00000Hnw9LAAR,1024999,37,37.0,True
457,0011t00000Hnw9LAAR,1024996,37,37.0,True
457,0011t00000Hnw9LAAR,1024998,37,37.0,True
457,0011t00000Hnw9LAAR,1024539,37,37.0,True
457,0011t00000Hnw9LAAR,1025013,37,37.0,True
457,0011t00000Hnw9LAAR,1024990,37,37.0,True
457,0011t00000Hnw9LAAR,1024546,37,37.0,True
457,0011t00000Hnw9LAAR,1025002,37,37.0,True
457,0011t00000Hnw9LAAR,1025012,37,37.0,True
457,0011t00000Hnw9LAAR,1024541,37,37.0,True
457,0011t00000Hnw9LAAR,1025001,37,37.0,True
457,0011t00000Hnw9LAAR,1024540,37,37.0,True
457,0011t00000Hnw9LAAR,1025015,37,37.0,True
457,0011t00000Hnw9LAAR,1024992,37,37.0,True
457,0011t00000Hnw9LAAR,1024991,37,37.0,True
457,0011t00000Hnw9LAAR,1025014,37,37.0,True
457,0011t00000Hnw9LAAR,1024543,37,37.0,True
457,0011t00000Hnw9LAAR,1025010,37,37.0,True
457,0011t00000Hnw9LAAR,1024995,37,37.0,True
457,0011t00000Hnw9LAAR,1014371,37,37.0,True
457,0011t00000Hnw9LAAR,1025011,37,37.0,True
457,0011t00000Hnw9LAAR,1024993,37,37.0,True
457,0011t00000Hnw9LAAR,1025008,37,37.0,True
457,0011t00000Hnw9LAAR,1025003,37,37.0,True
457,0011t00000Hnw9LAAR,1025016,37,37.0,True
457,0011t00000Hnw9LAAR,1024557,37,37.0,True
457,0011t00000Hnw9LAAR,1024544,37,37.0,True
457,0011t00000Hnw9LAAR,1025005,37,37.0,True
457,0011t00000Hnw9LAAR,1024997,37,37.0,True
457,0011t00000Hnw9LAAR,1025009,37,37.0,True
458,0011t00000Hnw9QAAR,1015672,1,1.0,True
459,0011t00000Hnw9eAAB,1016826,4,4.0,True
459,0011t00000Hnw9eAAB,1016825,4,4.0,True
459,0011t00000Hnw9eAAB,1016823,4,4.0,True
459,0011t00000Hnw9eAAB,1016824,4,4.0,True
460,0011t00000Hnw9hAAB,1024463,29,29.0,True
460,0011t00000Hnw9hAAB,1024477,29,29.0,True
460,0011t00000Hnw9hAAB,1024456,29,29.0,True
460,0011t00000Hnw9hAAB,1024474,29,29.0,True
460,0011t00000Hnw9hAAB,1024455,29,29.0,True
460,0011t00000Hnw9hAAB,1024453,29,29.0,True
460,0011t00000Hnw9hAAB,1024468,29,29.0,True
460,0011t00000Hnw9hAAB,1024461,29,29.0,True
460,0011t00000Hnw9hAAB,1024466,29,29.0,True
460,0011t00000Hnw9hAAB,1024473,29,29.0,True
460,0011t00000Hnw9hAAB,1024458,29,29.0,True
460,0011t00000Hnw9hAAB,1024457,29,29.0,True
460,0011t00000Hnw9hAAB,1024475,29,29.0,True
460,0011t00000Hnw9hAAB,1024480,29,29.0,True
460,0011t00000Hnw9hAAB,1024452,29,29.0,True
460,0011t00000Hnw9hAAB,1024460,29,29.0,True
460,0011t00000Hnw9hAAB,1024459,29,29.0,True
460,0011t00000Hnw9hAAB,1024478,29,29.0,True
460,0011t00000Hnw9hAAB,1024462,29,29.0,True
460,0011t00000Hnw9hAAB,1024467,29,29.0,True
460,0011t00000Hnw9hAAB,1024469,29,29.0,True
460,0011t00000Hnw9hAAB,1024465,29,29.0,True
460,0011t00000Hnw9hAAB,1024472,29,29.0,True
460,0011t00000Hnw9hAAB,1024482,29,29.0,True
460,0011t00000Hnw9hAAB,1024470,29,29.0,True
460,0011t00000Hnw9hAAB,1024479,29,29.0,True
460,0011t00000Hnw9hAAB,1024471,29,29.0,True
460,0011t00000Hnw9hAAB,1024454,29,29.0,True
460,0011t00000Hnw9hAAB,1024476,29,29.0,True
461,0011t00000HnwCtAAJ,1015676,2,2.0,True
461,0011t00000HnwCtAAJ,1015677,2,2.0,True
462,0011t00000HnwCwAAJ,1015522,5,5.0,True
462,0011t00000HnwCwAAJ,1015523,5,5.0,True
462,0011t00000HnwCwAAJ,1015525,5,5.0,True
462,0011t00000HnwCwAAJ,1015524,5,5.0,True
462,0011t00000HnwCwAAJ,1015521,5,5.0,True
463,0011t00000HnwCxAAJ,1025354,20,20.0,True
463,0011t00000HnwCxAAJ,1024303,20,20.0,True
463,0011t00000HnwCxAAJ,1024304,20,20.0,True
463,0011t00000HnwCxAAJ,1024306,20,20.0,True
463,0011t00000HnwCxAAJ,1025358,20,20.0,True
463,0011t00000HnwCxAAJ,1024297,20,20.0,True
463,0011t00000HnwCxAAJ,1025955,20,20.0,True
463,0011t00000HnwCxAAJ,1025950,20,20.0,True
463,0011t00000HnwCxAAJ,1024312,20,20.0,True
463,0011t00000HnwCxAAJ,1025995,20,20.0,True
463,0011t00000HnwCxAAJ,1024307,20,20.0,True
463,0011t00000HnwCxAAJ,1025360,20,20.0,True
463,0011t00000HnwCxAAJ,1025954,20,20.0,True
463,0011t00000HnwCxAAJ,1025974,20,20.0,True
463,0011t00000HnwCxAAJ,1024298,20,20.0,True
463,0011t00000HnwCxAAJ,1025891,20,20.0,True
463,0011t00000HnwCxAAJ,1024311,20,20.0,True
463,0011t00000HnwCxAAJ,1024305,20,20.0,True
463,0011t00000HnwCxAAJ,1025378,20,20.0,True
463,0011t00000HnwCxAAJ,1024299,20,20.0,True
464,0011t00000Hnv4HAAR,1024682,1,1.0,True
467,0011t00000HnwSCAAZ,1024675,1,1.0,True
468,0013X00002Z9zn1QAB,1025462,1,1.0,True
469,0013X00002ab0XOQAY,1025463,1,1.0,True
471,0011t00000HnwLNAAZ,1024673,1,1.0,True
472,0011t00000HnwQEAAZ,1024681,1,1.0,True
478,0011t00000HnwDIAAZ,1025163,19,19.0,True
478,0011t00000HnwDIAAZ,1025155,19,19.0,True
478,0011t00000HnwDIAAZ,1013101,19,19.0,True
478,0011t00000HnwDIAAZ,1025159,19,19.0,True
478,0011t00000HnwDIAAZ,1025165,19,19.0,True
478,0011t00000HnwDIAAZ,1025162,19,19.0,True
478,0011t00000HnwDIAAZ,1025166,19,19.0,True
478,0011t00000HnwDIAAZ,1025167,19,19.0,True
478,0011t00000HnwDIAAZ,1025164,19,19.0,True
478,0011t00000HnwDIAAZ,1025158,19,19.0,True
478,0011t00000HnwDIAAZ,1025154,19,19.0,True
478,0011t00000HnwDIAAZ,1016918,19,19.0,True
478,0011t00000HnwDIAAZ,1025156,19,19.0,True
478,0011t00000HnwDIAAZ,1016917,19,19.0,True
478,0011t00000HnwDIAAZ,1025168,19,19.0,True
478,0011t00000HnwDIAAZ,1025160,19,19.0,True
478,0011t00000HnwDIAAZ,1025161,19,19.0,True
478,0011t00000HnwDIAAZ,1016916,19,19.0,True
478,0011t00000HnwDIAAZ,1025157,19,19.0,True
479,0011t00000HnwDNAAZ,1025115,20,20.0,True
479,0011t00000HnwDNAAZ,1024428,20,20.0,True
479,0011t00000HnwDNAAZ,1025120,20,20.0,True
479,0011t00000HnwDNAAZ,1025123,20,20.0,True
479,0011t00000HnwDNAAZ,1025111,20,20.0,True
479,0011t00000HnwDNAAZ,1025125,20,20.0,True
479,0011t00000HnwDNAAZ,1025118,20,20.0,True
479,0011t00000HnwDNAAZ,1025648,20,20.0,True
479,0011t00000HnwDNAAZ,1024431,20,20.0,True
479,0011t00000HnwDNAAZ,1025113,20,20.0,True
479,0011t00000HnwDNAAZ,1025119,20,20.0,True
479,0011t00000HnwDNAAZ,1025117,20,20.0,True
479,0011t00000HnwDNAAZ,1024430,20,20.0,True
479,0011t00000HnwDNAAZ,1025122,20,20.0,True
479,0011t00000HnwDNAAZ,1024427,20,20.0,True
479,0011t00000HnwDNAAZ,1025114,20,20.0,True
479,0011t00000HnwDNAAZ,1025116,20,20.0,True
479,0011t00000HnwDNAAZ,1024429,20,20.0,True
479,0011t00000HnwDNAAZ,1025121,20,20.0,True
479,0011t00000HnwDNAAZ,1024432,20,20.0,True
480,0011t00000HnwDaAAJ,1014924,2,2.0,True
480,0011t00000HnwDaAAJ,1014925,2,2.0,True
484,0011t00000HnwE4AAJ,1025101,9,9.0,True
484,0011t00000HnwE4AAJ,1025106,9,9.0,True
484,0011t00000HnwE4AAJ,1025103,9,9.0,True
484,0011t00000HnwE4AAJ,1025098,9,9.0,True
484,0011t00000HnwE4AAJ,1025100,9,9.0,True
484,0011t00000HnwE4AAJ,1025099,9,9.0,True
484,0011t00000HnwE4AAJ,1025102,9,9.0,True
484,0011t00000HnwE4AAJ,1025104,9,9.0,True
484,0011t00000HnwE4AAJ,1025105,9,9.0,True
485,0011t00000HnwE9AAJ,1015178,6,6.0,True
485,0011t00000HnwE9AAJ,1015188,6,6.0,True
485,0011t00000HnwE9AAJ,1015180,6,6.0,True
485,0011t00000HnwE9AAJ,1015182,6,6.0,True
485,0011t00000HnwE9AAJ,1015121,6,6.0,True
485,0011t00000HnwE9AAJ,1016542,6,6.0,True
487,0011t00000HnwEPAAZ,1014295,2,2.0,True
487,0011t00000HnwEPAAZ,1014296,2,2.0,True
488,0011t00000HnwERAAZ,1024295,1,1.0,True
489,0011t00000HnwEwAAJ,1026981,1,1.0,True
490,0011t00000HnwFdAAJ,1016734,2,2.0,True
490,0011t00000HnwFdAAJ,1016735,2,2.0,True
491,0011t00000HnwFgAAJ,1016972,5,5.0,True
491,0011t00000HnwFgAAJ,1016974,5,5.0,True
491,0011t00000HnwFgAAJ,1016973,5,5.0,True
491,0011t00000HnwFgAAJ,1016976,5,5.0,True
491,0011t00000HnwFgAAJ,1016975,5,5.0,True
492,0011t00000HnwFiAAJ,1016657,6,6.0,True
492,0011t00000HnwFiAAJ,1016192,6,6.0,True
492,0011t00000HnwFiAAJ,1016662,6,6.0,True
492,0011t00000HnwFiAAJ,1016658,6,6.0,True
492,0011t00000HnwFiAAJ,1016660,6,6.0,True
492,0011t00000HnwFiAAJ,1016661,6,6.0,True
493,0011t00000HnwFoAAJ,1027146,1,1.0,True
495,0011t00000HnwKJAAZ,1014225,2,2.0,True
495,0011t00000HnwKJAAZ,1014224,2,2.0,True
496,0011t00000HnwKQAAZ,1014442,1,1.0,True
497,0011t00000HnwKcAAJ,1015748,1,1.0,True
498,0011t00000HnwKfAAJ,1024953,1,1.0,True
499,0011t00000HnwKgAAJ,1015276,1,1.0,True
500,0011t00000HnwKiAAJ,1000743,2,2.0,True
500,0011t00000HnwKiAAJ,1000744,2,2.0,True
501,0011t00000HnwKxAAJ,1026069,1,1.0,True
502,0011t00000HnwL1AAJ,1011848,1,1.0,True
503,0011t00000HnwLFAAZ,1015004,1,1.0,True
504,0011t00000V0AbFAAV,1016839,1,1.0,True
505,0011t00000HnwLTAAZ,1015228,1,1.0,True
506,0011t00000HnwLuAAJ,1015351,1,1.0,True
507,0011t00000HnwMIAAZ,1015340,1,1.0,True
508,0011t00000HnwMMAAZ,1013589,1,1.0,True
509,0011t00000HnwMPAAZ,1015836,2,2.0,True
509,0011t00000HnwMPAAZ,1015837,2,2.0,True
510,0011t00000HnwMQAAZ,1013789,1,1.0,True
511,0011t00000HnwMXAAZ,1014528,1,1.0,True
512,0011t00000HnwMeAAJ,1014046,1,1.0,True
513,0011t00000HnwQAAAZ,1024726,3,3.0,True
513,0011t00000HnwQAAAZ,1024728,3,3.0,True
513,0011t00000HnwQAAAZ,1024727,3,3.0,True
514,0011t00000HnwQcAAJ,1000756,1,1.0,True
515,0011t00000HnwQlAAJ,1016665,1,1.0,True
516,0011t00000HnwQqAAJ,1013239,1,1.0,True
517,0011t00000HnwQtAAJ,1014141,1,1.0,True
518,0011t00000HnwRCAAZ,1013982,1,1.0,True
520,0011t00000HnwRlAAJ,1000535,1,1.0,True
521,0011t00000HnwRsAAJ,1016324,1,1.0,True
522,0011t00000HnwRxAAJ,1016444,2,2.0,True
522,0011t00000HnwRxAAJ,1016443,2,2.0,True
523,0011t00000HnwSlAAJ,1011778,1,1.0,True
524,0011t00000HnwT4AAJ,1027203,1,1.0,True
525,0011t00000HnwT9AAJ,1016636,1,1.0,True
526,0011t00000HnwWZAAZ,1014779,1,1.0,True
527,0011t00000HnwWvAAJ,1027295,1,1.0,True
528,0011t00000HnwX0AAJ,1025464,1,1.0,True
529,0011t00000HnwX1AAJ,1015310,1,1.0,True
530,0011t00000HnwXPAAZ,1011307,1,1.0,True
531,0011t00000HnwXUAAZ,1025080,1,1.0,True
532,0011t00000HnwXXAAZ,1014148,1,1.0,True
535,0011t00000HnwXlAAJ,1015706,1,1.0,True
536,0011t00000HnwXuAAJ,1014159,1,1.0,True
537,0011t00000HnwY2AAJ,1012796,1,1.0,True
538,0011t00000HnwY5AAJ,1014209,1,1.0,True
539,0011t00000HnwYDAAZ,1024581,1,1.0,True
540,0011t00000HnwYRAAZ,1026140,1,1.0,True
541,0011t00000HnwYiAAJ,1024330,1,1.0,True
542,0011t00000HnwZ1AAJ,1013064,1,1.0,True
543,0011t00000HnwZ8AAJ,1015708,1,1.0,True
544,0011t00000Hnwd6AAB,1027149,2,2.0,True
544,0011t00000Hnwd6AAB,1027148,2,2.0,True
545,0011t00000HnwdIAAR,1026570,1,1.0,True
546,0011t00000HnwfBAAR,1014208,1,1.0,True
547,0011t00000HnwfCAAR,1012766,1,1.0,True
548,0011t00000HnwfVAAR,1014157,1,1.0,True
549,0011t00000HnwfiAAB,1014202,1,1.0,True
550,0011t00000HnwfmAAB,1015885,1,1.0,True
551,0011t00000HnwjHAAR,1015726,1,1.0,True
552,0011t00000HnwjXAAR,1015915,1,1.0,True
553,0011t00000HnwjfAAB,1011281,1,1.0,True
554,0011t00000HnwjmAAB,1024550,2,2.0,True
554,0011t00000HnwjmAAB,1024549,2,2.0,True
555,0011t00000HnwjqAAB,1024925,1,1.0,True
556,0011t00000Hnwk8AAB,1016000,1,1.0,True
557,0011t00000HnwkBAAR,1014210,1,1.0,True
558,0011t00000HnwkEAAR,1012194,1,1.0,True
559,0011t00000HnwkGAAR,1016886,1,1.0,True
560,0011t00000HnwkgAAB,1015987,1,1.0,True
561,0011t00000HnwktAAB,1025494,1,1.0,True
562,0011t00000HnwlSAAR,1012988,1,1.0,True
563,0011t00000HnwlVAAR,1025839,1,1.0,True
564,0011t00000HnwliAAB,1015998,1,1.0,True
565,0011t00000HnwlkAAB,1011314,1,1.0,True
566,0011t00000HnwmKAAR,1014847,1,1.0,True
567,0011t00000HnwnMAAR,1013642,1,1.0,True
568,0011t00000HnwnQAAR,1014020,1,1.0,True
569,0011t00000JBGFJAA5,1024394,1,1.0,True
570,0011t00000iLgnPAAS,1014412,1,1.0,True
584,0011t00000JBNKzAAP,1014124,1,1.0,True
585,0011t00000JBNL2AAP,1010919,1,1.0,True
586,0011t00000JBNLCAA5,1011809,9,9.0,True
586,0011t00000JBNLCAA5,1011811,9,9.0,True
586,0011t00000JBNLCAA5,1011806,9,9.0,True
586,0011t00000JBNLCAA5,1011810,9,9.0,True
586,0011t00000JBNLCAA5,1011375,9,9.0,True
586,0011t00000JBNLCAA5,1011374,9,9.0,True
586,0011t00000JBNLCAA5,1016896,9,9.0,True
586,0011t00000JBNLCAA5,1011808,9,9.0,True
586,0011t00000JBNLCAA5,1011807,9,9.0,True
589,0011t00000HnvpuAAB,1027014,5,5.0,True
589,0011t00000HnvpuAAB,1027012,5,5.0,True
589,0011t00000HnvpuAAB,1025208,5,5.0,True
589,0011t00000HnvpuAAB,1027013,5,5.0,True
589,0011t00000HnvpuAAB,1025210,5,5.0,True
590,0011t00000Hnsf3AAB,1016803,1,1.0,True
591,0011t00000kKcp5AAC,1024425,1,1.0,True
592,0013X00002kTX1mQAG,1026827,1,1.0,True
594,0011t00000JBNX6AAP,1013203,1,1.0,True
596,0011t00000JEGMJAA5,1016260,1,1.0,True
597,0011t00000JzGQZAA3,1016483,3,3.0,True
597,0011t00000JzGQZAA3,1016485,3,3.0,True
597,0011t00000JzGQZAA3,1016484,3,3.0,True
598,0011t00000JzHdXAAV,1016401,1,1.0,True
599,0011t00000JzbdxAAB,1016867,1,1.0,True
600,0011t00000K1ZAaAAN,1016477,1,1.0,True
605,0011t00000K1sPQAAZ,1027481,1,1.0,True
606,0011t00000K1x1PAAR,1024871,1,1.0,True
607,0011t00000K1x5bAAB,1016198,1,1.0,True
609,0011t00000MtMYcAAN,1024524,1,1.0,True
610,0011t00000MvBczAAF,1016492,1,1.0,True
611,0011t00000PfHzxAAF,1024398,1,1.0,True
613,0011t00000Hnv8OAAR,1011777,1,1.0,True
614,0011t00000Hnv8PAAR,1011777,1,1.0,True
615,0011t00000PtbohAAB,1016587,1,1.0,True
619,0011t00000Hnt5KAAR,1013168,1,1.0,True
620,0011t00000HnwYmAAJ,1016571,1,1.0,True
621,0013X000034AvySQAS,1027388,1,1.0,True
622,0011t00000QggdfAAB,1016594,1,1.0,True
623,0011t00000QiySeAAJ,1027457,5,5.0,True
623,0011t00000QiySeAAJ,1027456,5,5.0,True
623,0011t00000QiySeAAJ,1027455,5,5.0,True
623,0011t00000QiySeAAJ,1027451,5,5.0,True
623,0011t00000QiySeAAJ,1027450,5,5.0,True
625,0011t00000SNgE9AAL,1024967,1,1.0,True
626,0011t00000STmCeAAL,1016694,1,1.0,True
627,0011t00000TQVScAAP,1016690,1,1.0,True
628,0011t00000TbV5gAAF,1016864,2,2.0,True
628,0011t00000TbV5gAAF,1024424,2,2.0,True
629,0011t00000r52fxAAA,1016864,2,2.0,True
629,0011t00000r52fxAAA,1024424,2,2.0,True
630,0011t00000TbqJuAAJ,1026588,1,1.0,True
631,0011t00000TcDzjAAF,1025046,1,1.0,True
632,0011t00000TczL0AAJ,1016708,1,1.0,True
633,0011t00000UQ60zAAD,1024582,1,1.0,True
634,0011t00000HnvH5AAJ,1000395,1,1.0,True
635,0013X00002RaLKqQAN,1016799,1,1.0,True
636,0011t00000Hnv97AAB,1000592,1,1.0,True
637,0011t00000VZLHtAAP,1027387,3,3.0,True
637,0011t00000VZLHtAAP,1027385,3,3.0,True
637,0011t00000VZLHtAAP,1027386,3,3.0,True
638,0011t00000HnvFNAAZ,1013488,1,1.0,True
639,0011t00000HnveFAAR,1016265,1,1.0,True
642,0011t00000XFjzQAAT,1024744,3,3.0,True
642,0011t00000XFjzQAAT,1016776,3,3.0,True
642,0011t00000XFjzQAAT,1026684,3,3.0,True
643,0011t00000YPINqAAP,1016860,1,1.0,True
645,0011t00000Zahn3AAB,1024961,1,1.0,True
646,0011t00000cJ5PFAA0,1024939,1,1.0,True
647,0011t00000dolpQAAQ,1016887,1,1.0,True
650,0011t00000f7APXAA2,1025509,1,1.0,True
651,0011t00000HnvZSAAZ,1014640,1,1.0,True
652,0013X00002jTzXzQAK,1026683,1,1.0,True
654,0011t00000f8u6zAAA,1027112,1,1.0,True
657,0011t00000g7vuMAAQ,1016863,1,1.0,True
658,0011t00000g8f4DAAQ,1024747,14,14.0,True
658,0011t00000g8f4DAAQ,1024753,14,14.0,True
658,0011t00000g8f4DAAQ,1024751,14,14.0,True
658,0011t00000g8f4DAAQ,1024749,14,14.0,True
658,0011t00000g8f4DAAQ,1024754,14,14.0,True
658,0011t00000g8f4DAAQ,1024759,14,14.0,True
658,0011t00000g8f4DAAQ,1024750,14,14.0,True
658,0011t00000g8f4DAAQ,1024748,14,14.0,True
658,0011t00000g8f4DAAQ,1024758,14,14.0,True
658,0011t00000g8f4DAAQ,1024757,14,14.0,True
658,0011t00000g8f4DAAQ,1024755,14,14.0,True
658,0011t00000g8f4DAAQ,1024756,14,14.0,True
658,0011t00000g8f4DAAQ,1024760,14,14.0,True
658,0011t00000g8f4DAAQ,1024752,14,14.0,True
659,0011t00000g8rYJAAY,1026468,1,1.0,True
660,0011t00000iM7RLAA0,1024875,1,1.0,True
661,0011t00000iNjVcAAK,1024585,1,1.0,True
664,0011t00000jP0ZUAA0,1024374,1,1.0,True
665,0011t00000kJTyZAAW,1024384,4,4.0,True
665,0011t00000kJTyZAAW,1024376,4,4.0,True
665,0011t00000kJTyZAAW,1027378,4,4.0,True
665,0011t00000kJTyZAAW,1027379,4,4.0,True
666,0011t00000sV8OvAAK,1024483,1,1.0,True
667,0013X00002QtjegQAB,1016250,1,1.0,True
668,0013X00002Qtp3vQAB,1024711,1,1.0,True
669,0013X00002QtpiAQAR,1024723,1,1.0,True
670,0013X00002QtqczQAB,1024729,1,1.0,True
671,0013X00002RWx3BQAT,1024579,1,1.0,True
672,0013X00002RYB9lQAH,1024863,1,1.0,True
673,0013X00002RaJEkQAN,1024690,1,1.0,True
674,0013X00002SOUyDQAX,1024712,1,1.0,True
678,0013X00002SXR9WQAX,1024874,1,1.0,True
679,0013X00002SXXyLQAX,1027110,1,1.0,True
680,0013X00002SXiu7QAD,1025338,6,6.0,True
680,0013X00002SXiu7QAD,1025341,6,6.0,True
680,0013X00002SXiu7QAD,1025340,6,6.0,True
680,0013X00002SXiu7QAD,1025337,6,6.0,True
680,0013X00002SXiu7QAD,1025339,6,6.0,True
680,0013X00002SXiu7QAD,1025336,6,6.0,True
681,0013X00002SYkVBQA1,1024979,1,1.0,True
682,0013X00002SZ1fhQAD,1024898,4,4.0,True
682,0013X00002SZ1fhQAD,1024899,4,4.0,True
682,0013X00002SZ1fhQAD,1026274,4,4.0,True
682,0013X00002SZ1fhQAD,1024900,4,4.0,True
688,0011t00000HnvAOAAZ,1014446,1,1.0,True
689,0013X00002SZkXqQAL,1024969,1,1.0,True
695,0013X00002WknMAQAZ,1012762,1,1.0,True
696,0011t00000XFSg0AAH,1016837,1,1.0,True
697,0011t00000HntFsAAJ,1014012,1,1.0,True
698,0013X00002SamX6QAJ,1024938,1,1.0,True
699,0013X00002VF8XlQAL,1025204,1,1.0,True
702,0011t00000HnwMBAAZ,1024973,1,1.0,True
703,0013X00002VFFpwQAH,1025175,2,2.0,True
703,0013X00002VFFpwQAH,1025688,2,2.0,True
704,0013X00002VFJbJQAX,1024950,1,1.0,True
705,0011t00000r6JfzAAE,1024717,1,1.0,True
706,0013X00002VGG0UQAX,1025201,1,1.0,True
713,0013X00002WkC1mQAF,1025026,1,1.0,True
714,0013X00002Wl0neQAB,1025133,1,1.0,True
715,0013X00002WlH3aQAF,1025151,1,1.0,True
716,0013X00002WleJdQAJ,1025757,1,1.0,True
717,0013X00002WnKqCQAV,1025152,1,1.0,True
718,0013X00002WnOlkQAF,1025962,1,1.0,True
719,0013X00002XH3NrQAL,1025177,1,1.0,True
720,0011t00000HnsqjAAB,1016543,1,1.0,True
722,0011t00000W01LaAAJ,1024554,1,1.0,True
723,0013X00002XKUrCQAX,1025493,1,1.0,True
724,0013X00002Z6cpbQAB,1026901,1,1.0,True
725,0013X00002Z6eS3QAJ,1025442,2,2.0,True
725,0013X00002Z6eS3QAJ,1027201,2,2.0,True
726,0013X00002Z7PDGQA3,1026353,1,1.0,True
727,0013X00002Z80AvQAJ,1026473,1,1.0,True
728,0013X00002Z80lqQAB,1025370,1,1.0,True
732,0013X00002Z9NwYQAV,1026879,2,2.0,True
732,0013X00002Z9NwYQAV,1026878,2,2.0,True
737,0013X00002abKReQAM,1025824,1,1.0,True
738,0013X00002abtR4QAI,1026666,1,1.0,True
739,0013X00002acMSAQA2,1025823,1,1.0,True
742,0013X00002aegxUQAQ,1026838,1,1.0,True
743,0013X00002cq2ViQAI,1026231,1,1.0,True
746,0013X00002cqoz9QAA,1025775,1,1.0,True
747,0013X00002crDhjQAE,1025717,1,1.0,True
748,0013X00002i0aKSQAY,1026462,1,1.0,True
749,0013X000035NYk8QAG,1027551,2,2.0,True
749,0013X000035NYk8QAG,1027550,2,2.0,True
750,0013X00002csLjuQAE,1025813,1,1.0,True
751,0013X00002Z8TEBQA3,1025457,1,1.0,True
752,0013X00002fh7LvQAI,1026070,1,1.0,True
753,0013X00002fhjzgQAA,1026748,2,2.0,True
753,0013X00002fhjzgQAA,1026619,2,2.0,True
754,0013X00002fhlqyQAA,1026645,1,1.0,True
755,0013X00002fibsCQAQ,1026067,1,1.0,True
756,0013X00002fiefbQAA,1027036,2,2.0,True
756,0013X00002fiefbQAA,1027234,2,2.0,True
758,0013X00002fii0tQAA,1026166,3,3.0,True
758,0013X00002fii0tQAA,1026167,3,3.0,True
758,0013X00002fii0tQAA,1026168,3,3.0,True
759,0013X00002gc3T6QAI,1027421,1,1.0,True
760,0013X00002gc5FlQAI,1027353,1,1.0,True
761,0013X00002gd7avQAA,1026644,5,5.0,True
761,0013X00002gd7avQAA,1026643,5,5.0,True
761,0013X00002gd7avQAA,1026640,5,5.0,True
761,0013X00002gd7avQAA,1026642,5,5.0,True
761,0013X00002gd7avQAA,1026641,5,5.0,True
762,0013X00002gdeYdQAI,1026527,4,4.0,True
762,0013X00002gdeYdQAI,1026524,4,4.0,True
762,0013X00002gdeYdQAI,1026526,4,4.0,True
762,0013X00002gdeYdQAI,1026525,4,4.0,True
763,0013X00002gerYOQAY,1026339,1,1.0,True
764,0013X00002gf4HdQAI,1026424,1,1.0,True
765,0013X00002gfgxfQAA,1026621,1,1.0,True
766,0013X00002uW7TYQA0,1026702,1,1.0,True
767,0013X00002gfrcQQAQ,1026439,1,1.0,True
768,0013X00002hyLdlQAE,1026465,1,1.0,True
769,0013X00002hyRFoQAM,1027000,1,1.0,True
770,0013X00002hyfKHQAY,1027319,1,1.0,True
771,0013X00002hyg1RQAQ,1026507,1,1.0,True
772,0013X00002hyqLTQAY,1000597,1,1.0,True
777,0013X00002i0PJ4QAM,1026796,3,3.0,True
777,0013X00002i0PJ4QAM,1026795,3,3.0,True
777,0013X00002i0PJ4QAM,1026797,3,3.0,True
778,0013X00002i1SRkQAM,1026427,1,1.0,True
779,0013X00002i1gg0QAA,1026762,1,1.0,True
780,0013X00002i1jr4QAA,1026706,1,1.0,True
781,0013X00002jTBFDQA4,1026889,1,1.0,True
782,0013X00002gf5suQAA,1026227,1,1.0,True
783,0013X00002jU5ktQAC,1027032,1,1.0,True
784,0013X00002jU5l5QAC,1027008,1,1.0,True
786,0013X00002kTGQkQAO,1026924,1,1.0,True
787,0013X00002kTNxbQAG,1026806,1,1.0,True
790,0013X00002kTTiqQAG,1027402,8,8.0,True
790,0013X00002kTTiqQAG,1027398,8,8.0,True
790,0013X00002kTTiqQAG,1027397,8,8.0,True
790,0013X00002kTTiqQAG,1027401,8,8.0,True
790,0013X00002kTTiqQAG,1027400,8,8.0,True
790,0013X00002kTTiqQAG,1027399,8,8.0,True
790,0013X00002kTTiqQAG,1027395,8,8.0,True
790,0013X00002kTTiqQAG,1027396,8,8.0,True
791,0013X00002kU3OxQAK,1026851,1,1.0,True
795,0013X00002m6HmYQAU,1013323,1,1.0,True
796,0013X00002m6Q6gQAE,1027093,1,1.0,True
797,0011t00000HnvAWAAZ,1010873,1,1.0,True
798,0013X00002oen37QAA,1027040,1,1.0,True
799,0013X00002oeoCMQAY,1026968,1,1.0,True
801,0013X00002proH5QAI,1027515,1,1.0,True
802,0013X00002qn88rQAA,1027086,1,1.0,True
803,0013X00002qnjnXQAQ,1027084,2,2.0,True
803,0013X00002qnjnXQAQ,1027083,2,2.0,True
804,0013X00002qpHPMQA2,1027135,1,1.0,True
805,0013X00002s7FyaQAE,1027217,1,1.0,True
806,0013X00002sokfbQAA,1027265,1,1.0,True
807,0013X00002spSXjQAM,1027147,1,1.0,True
808,0013X00002sqPkOQAU,1027179,2,2.0,True
808,0013X00002sqPkOQAU,1027180,2,2.0,True
809,0013X00002uUSPFQA4,1027181,1,1.0,True
810,0013X00002uVa2GQAS,1027166,1,1.0,True
811,0013X00002wJu1nQAC,1027213,1,1.0,True
812,0013X00002wLRs1QAG,1013328,1,1.0,True
814,0013X0000307Z9tQAE,1027011,1,1.0,True
815,0013X000031AYcrQAG,1027632,1,1.0,True
816,0013X0000325pIOQAY,1027326,2,2.0,True
816,0013X0000325pIOQAY,1027327,2,2.0,True
819,0013X000035Mh1uQAC,1027447,1,1.0,True
820,0013X000036uZjVQAU,1027529,1,1.0,True
821,0013X00003DR01PQAT,1027595,1,1.0,True
822,0011t00000HnuPhAAJ,1016393,2,2.0,True
822,0011t00000HnuPhAAJ,1016394,2,2.0,True
